{
  "help": {
    "heading": "help",
    "next": "how you can contribute",
    "nexturi" : "contributing"
  },
 "contributing": {
   "heading": "contributing",
   "next": "the projects made with pubsweet",
   "nexturi" : "projects"
 },
 "projects": {
   "heading": "projects"
 }
}
