<?xml version="1.0" encoding="UTF-8" standalone="no"?>
<svg width="9px" height="9px" viewBox="0 0 7 7" version="1.1" xmlns="http://www.w3.org/2000/svg" xmlns:xlink="http://www.w3.org/1999/xlink">
    <title>&gt;</title>
    <g id="Puce" stroke="none" stroke-width="1" fill="none" fill-rule="evenodd">
        <!-- <polygon id="&gt;" fill="#9012FE" points="1.23746341 0.594 0.896 1.39074797 6.05047154 3.78099187 0.896 6.22001626 1.23746341 7.00050407 6.896 4.22001626 6.896 3.34196748"></polygon> -->
    </g>
      <text x="0" y="100%" font-family="Fira Sans" font-size="12" fill="black">—</text>

</svg>
