<?xml version="1.0" encoding="UTF-8" standalone="no"?>


<svg
   xmlns:dc="http://purl.org/dc/elements/1.1/"
   xmlns:cc="http://creativecommons.org/ns#"
   xmlns:rdf="http://www.w3.org/1999/02/22-rdf-syntax-ns#"
   xmlns:svg="http://www.w3.org/2000/svg"
   xmlns="http://www.w3.org/2000/svg"
   xmlns:sodipodi="http://sodipodi.sourceforge.net/DTD/sodipodi-0.dtd"

   
   
   viewBox="0 0 105 27"
   id="shuttleworth-logo"
   version="1.1"
   
   sodipodi:docname="shuttleworth.svg">
  <defs
     id="defs3955" />

  <metadata
     id="metadata3958">
    <rdf:RDF>
      <cc:Work
         rdf:about="">
        <dc:format>image/svg+xml</dc:format>
        <dc:type
           rdf:resource="http://purl.org/dc/dcmitype/StillImage" />
        <dc:title></dc:title>
      </cc:Work>
    </rdf:RDF>
  </metadata>
  <g
     
     
     id="layer1"
     transform="translate(-119.13573,-367.79841)">
    <g
       id="shuttleworth">
      <path
         d="m 186.24942,386.96451 0,2.249 c 0,0.244 0.069,0.389 0.205,0.44 0.077,0.029 0.185,0.043 0.325,0.043 l 0,0.233 -1.294,0 0,-0.233 0.031,0 c 0.14,0 0.238,-0.025 0.298,-0.073 0.072,-0.055 0.109,-0.156 0.109,-0.302 l 0,-2.731 c -0.113,-0.088 -0.255,-0.132 -0.428,-0.132 l 0,-0.231 1.101,0 2.18,2.536 0,-1.799 c 0,-0.269 -0.061,-0.426 -0.183,-0.468 -0.071,-0.024 -0.179,-0.038 -0.325,-0.038 l -0.053,0 0,-0.231 1.377,0 0,0.231 -0.053,0 c -0.139,0 -0.237,0.015 -0.297,0.041 -0.094,0.045 -0.141,0.132 -0.141,0.262 l 0,3.186 -0.294,0 -2.558,-2.983 z m -4.973,0.887 c 0,0.562 0.118,1.021 0.354,1.377 0.231,0.352 0.537,0.529 0.916,0.529 0.469,0 0.792,-0.255 0.97,-0.763 0.079,-0.236 0.119,-0.493 0.119,-0.775 0,-0.511 -0.106,-0.943 -0.32,-1.292 -0.226,-0.373 -0.532,-0.559 -0.918,-0.559 -0.463,0 -0.789,0.235 -0.981,0.703 -0.093,0.228 -0.14,0.487 -0.14,0.78 l 0,0 z m -0.798,0.287 c 0,-0.585 0.192,-1.071 0.575,-1.452 0.382,-0.382 0.873,-0.573 1.471,-0.573 0.562,0 1.02,0.177 1.374,0.527 0.356,0.352 0.532,0.806 0.532,1.366 0,0.422 -0.106,0.801 -0.32,1.135 -0.209,0.326 -0.492,0.563 -0.85,0.712 -0.251,0.106 -0.529,0.16 -0.837,0.16 -0.356,0 -0.681,-0.073 -0.973,-0.221 -0.323,-0.165 -0.569,-0.404 -0.741,-0.718 -0.154,-0.284 -0.231,-0.597 -0.231,-0.936 l 0,0 z m -2.752,-1.68 0,-0.231 1.697,0 0,0.231 -0.088,0 c -0.271,0 -0.407,0.15 -0.407,0.448 l 0,2.358 c 0,0.16 0.033,0.273 0.1,0.336 0.065,0.064 0.171,0.096 0.317,0.096 l 0.078,0 0,0.233 -1.697,0 0,-0.233 0.076,0 c 0.259,0 0.388,-0.136 0.388,-0.409 l 0,-2.381 c 0,-0.161 -0.029,-0.276 -0.088,-0.344 -0.06,-0.068 -0.162,-0.104 -0.306,-0.104 l -0.07,0 z m -2.35,0.079 0,2.713 c 0,0.177 0.038,0.298 0.115,0.362 0.065,0.056 0.182,0.084 0.349,0.084 l 0.128,0 0,0.233 -1.922,0 0,-0.233 0.18,0 c 0.274,0 0.412,-0.148 0.412,-0.446 l 0,-2.713 -0.631,0 c -0.127,0 -0.219,0.009 -0.274,0.029 -0.091,0.031 -0.155,0.097 -0.193,0.198 -0.037,0.091 -0.073,0.25 -0.109,0.473 l -0.22,0 0.096,-1.112 0.173,0 c 0.048,0.05 0.083,0.078 0.102,0.084 0.034,0.012 0.086,0.018 0.154,0.018 l 2.541,0 c 0.105,0 0.19,-0.036 0.256,-0.102 l 0.172,0 0.096,1.112 -0.218,0 c -0.03,-0.183 -0.053,-0.305 -0.071,-0.366 -0.045,-0.153 -0.109,-0.249 -0.19,-0.287 -0.068,-0.032 -0.174,-0.047 -0.318,-0.047 l -0.628,0 z m -4.671,1.688 -0.491,-1.391 -0.448,1.391 0.939,0 z m 0.122,0.329 -1.168,0 -0.224,0.696 c -0.054,0.166 -0.057,0.283 -0.008,0.347 0.047,0.066 0.19,0.099 0.43,0.099 l 0.068,0 0,0.233 -1.416,0 0,-0.233 0.081,0 c 0.144,0 0.26,-0.053 0.347,-0.159 0.061,-0.078 0.119,-0.207 0.177,-0.387 l 0.913,-2.839 -0.058,-0.175 0.79,0 1.066,3.025 c 0.064,0.178 0.126,0.304 0.188,0.376 0.084,0.094 0.199,0.148 0.347,0.159 l 0,0.233 -1.736,0 0,-0.233 0.188,0 c 0.155,0 0.254,-0.037 0.294,-0.114 0.039,-0.073 0.029,-0.186 -0.027,-0.339 l -0.252,-0.689 z m -6.063,-2.096 0,2.779 c 0,0.199 0.027,0.325 0.082,0.376 0.055,0.052 0.183,0.077 0.382,0.077 0.544,0 0.944,-0.177 1.199,-0.532 0.208,-0.292 0.313,-0.656 0.313,-1.093 0,-0.51 -0.132,-0.914 -0.396,-1.209 -0.256,-0.284 -0.644,-0.426 -1.163,-0.426 -0.149,0 -0.289,0.009 -0.417,0.028 l 0,0 z m -1.233,0 0,-0.231 c 0.127,-0.008 0.252,-0.015 0.378,-0.021 l 0.258,-0.013 c 0.018,0 0.093,-0.004 0.224,-0.013 0.285,-0.02 0.529,-0.03 0.73,-0.03 0.695,0 1.2,0.081 1.514,0.24 0.375,0.189 0.636,0.491 0.786,0.906 0.076,0.215 0.114,0.446 0.114,0.691 0,0.521 -0.165,0.967 -0.495,1.334 -0.364,0.406 -0.968,0.608 -1.812,0.608 l -1.697,0 0,-0.233 c 0.169,0 0.289,-0.022 0.356,-0.067 0.093,-0.059 0.139,-0.175 0.139,-0.348 l 0,-2.3 c 0,-0.27 -0.061,-0.432 -0.182,-0.482 -0.07,-0.026 -0.175,-0.041 -0.313,-0.041 l 0,0 z m -4.21,0.506 0,2.249 c 0,0.244 0.068,0.389 0.205,0.44 0.077,0.029 0.184,0.043 0.324,0.043 l 0,0.233 -1.293,0 0,-0.233 0.031,0 c 0.139,0 0.238,-0.025 0.297,-0.073 0.074,-0.055 0.11,-0.156 0.11,-0.302 l 0,-2.731 c -0.113,-0.088 -0.256,-0.132 -0.428,-0.132 l 0,-0.231 1.1,0 2.18,2.536 0,-1.799 c 0,-0.269 -0.061,-0.426 -0.182,-0.468 -0.071,-0.024 -0.18,-0.038 -0.326,-0.038 l -0.052,0 0,-0.231 1.376,0 0,0.231 -0.052,0 c -0.139,0 -0.238,0.015 -0.297,0.041 -0.094,0.045 -0.141,0.132 -0.141,0.262 l 0,3.186 -0.294,0 -2.558,-2.983 z m -2.951,-0.506 0,-0.231 1.385,0 0,0.231 -0.039,0 c -0.173,0 -0.296,0.035 -0.371,0.103 -0.079,0.075 -0.119,0.206 -0.119,0.392 l 0,1.481 c 0,0.527 -0.133,0.926 -0.399,1.192 -0.256,0.258 -0.623,0.387 -1.101,0.387 -0.453,0 -0.817,-0.101 -1.09,-0.303 -0.321,-0.236 -0.482,-0.592 -0.482,-1.072 l 0,-1.775 c 0,-0.158 -0.027,-0.263 -0.081,-0.32 -0.054,-0.056 -0.151,-0.085 -0.291,-0.085 l -0.092,0 0,-0.231 1.671,0 0,0.231 -0.091,0 c -0.252,0 -0.378,0.135 -0.378,0.405 l 0,1.775 c 0,0.442 0.163,0.736 0.488,0.877 0.144,0.065 0.304,0.097 0.479,0.097 0.321,0 0.574,-0.092 0.758,-0.274 0.192,-0.191 0.288,-0.464 0.288,-0.819 l 0,-1.448 c 0,-0.282 -0.06,-0.466 -0.178,-0.549 -0.064,-0.043 -0.151,-0.064 -0.261,-0.064 l -0.096,0 z m -6.788,1.393 c 0,0.562 0.119,1.021 0.355,1.377 0.231,0.352 0.536,0.529 0.915,0.529 0.469,0 0.792,-0.255 0.97,-0.763 0.079,-0.236 0.119,-0.493 0.119,-0.775 0,-0.511 -0.106,-0.943 -0.32,-1.292 -0.226,-0.373 -0.532,-0.559 -0.918,-0.559 -0.462,0 -0.789,0.235 -0.98,0.703 -0.094,0.228 -0.141,0.487 -0.141,0.78 l 0,0 z m -0.797,0.287 c 0,-0.585 0.191,-1.071 0.575,-1.452 0.383,-0.382 0.873,-0.573 1.471,-0.573 0.561,0 1.02,0.177 1.374,0.527 0.355,0.352 0.532,0.806 0.532,1.366 0,0.422 -0.107,0.801 -0.32,1.135 -0.209,0.326 -0.493,0.563 -0.85,0.712 -0.251,0.106 -0.53,0.16 -0.838,0.16 -0.356,0 -0.681,-0.073 -0.972,-0.221 -0.323,-0.165 -0.57,-0.404 -0.741,-0.718 -0.155,-0.284 -0.231,-0.597 -0.231,-0.936 l 0,0 z m -2.758,-1.584 0,1.34 0.743,0 c 0.236,0 0.379,-0.056 0.425,-0.172 0.027,-0.061 0.039,-0.149 0.039,-0.263 l 0.215,0 0,1.185 -0.215,0 c 0,-0.283 -0.122,-0.425 -0.367,-0.425 l -0.84,0 0,0.96 c 0,0.268 0.045,0.426 0.133,0.477 0.049,0.027 0.124,0.04 0.224,0.04 l 0.101,0 0,0.233 -1.594,0 0,-0.233 0.085,0 c 0.115,0 0.197,-0.025 0.243,-0.074 0.047,-0.051 0.07,-0.14 0.07,-0.265 l 0,-2.41 c 0,-0.165 -0.018,-0.282 -0.054,-0.352 -0.05,-0.095 -0.143,-0.143 -0.276,-0.143 l -0.068,0 0,-0.225 2.696,0 0,0.839 -0.194,0 c -0.008,-0.174 -0.029,-0.295 -0.061,-0.361 -0.05,-0.101 -0.141,-0.151 -0.275,-0.151 l -1.03,0 z"
         
         style="fill:#405062;fill-rule:evenodd;stroke:none;stroke-width:1" />
      <path
         d="m 186.24942,386.96451 0,2.249 c 0,0.244 0.069,0.389 0.205,0.44 0.077,0.029 0.185,0.043 0.325,0.043 l 0,0.233 -1.294,0 0,-0.233 0.032,0 c 0.139,0 0.237,-0.025 0.297,-0.073 0.072,-0.055 0.109,-0.156 0.109,-0.302 l 0,-2.731 c -0.113,-0.088 -0.255,-0.132 -0.428,-0.132 l 0,-0.231 1.101,0 2.18,2.536 0,-1.799 c 0,-0.269 -0.061,-0.426 -0.183,-0.468 -0.071,-0.024 -0.179,-0.038 -0.325,-0.038 l -0.053,0 0,-0.231 1.377,0 0,0.231 -0.053,0 c -0.139,0 -0.237,0.015 -0.297,0.041 -0.094,0.045 -0.141,0.132 -0.141,0.262 l 0,3.186 -0.294,0 -2.558,-2.983 z m -4.973,0.887 c 0,0.562 0.118,1.021 0.354,1.377 0.231,0.352 0.537,0.529 0.916,0.529 0.469,0 0.792,-0.255 0.97,-0.763 0.079,-0.236 0.119,-0.493 0.119,-0.775 0,-0.511 -0.106,-0.943 -0.32,-1.292 -0.226,-0.373 -0.532,-0.559 -0.918,-0.559 -0.463,0 -0.789,0.235 -0.981,0.703 -0.093,0.228 -0.14,0.487 -0.14,0.78 l 0,0 z m -0.798,0.287 c 0,-0.585 0.192,-1.071 0.575,-1.452 0.382,-0.382 0.873,-0.573 1.471,-0.573 0.562,0 1.02,0.177 1.374,0.527 0.356,0.352 0.532,0.806 0.532,1.366 0,0.422 -0.106,0.801 -0.32,1.135 -0.209,0.326 -0.492,0.563 -0.85,0.712 -0.251,0.106 -0.529,0.16 -0.837,0.16 -0.356,0 -0.681,-0.073 -0.973,-0.221 -0.323,-0.165 -0.569,-0.404 -0.741,-0.718 -0.154,-0.284 -0.231,-0.597 -0.231,-0.936 l 0,0 z m -2.752,-1.68 0,-0.231 1.697,0 0,0.231 -0.088,0 c -0.271,0 -0.407,0.15 -0.407,0.448 l 0,2.358 c 0,0.16 0.033,0.273 0.1,0.336 0.065,0.064 0.171,0.096 0.317,0.096 l 0.078,0 0,0.233 -1.697,0 0,-0.233 0.076,0 c 0.259,0 0.388,-0.136 0.388,-0.409 l 0,-2.381 c 0,-0.161 -0.029,-0.276 -0.088,-0.344 -0.06,-0.068 -0.162,-0.104 -0.306,-0.104 l -0.07,0 z m -2.35,0.079 0,2.713 c 0,0.177 0.038,0.298 0.115,0.362 0.065,0.056 0.182,0.084 0.349,0.084 l 0.128,0 0,0.233 -1.922,0 0,-0.233 0.18,0 c 0.274,0 0.412,-0.148 0.412,-0.446 l 0,-2.713 -0.631,0 c -0.127,0 -0.219,0.009 -0.274,0.029 -0.091,0.031 -0.155,0.097 -0.193,0.198 -0.037,0.091 -0.073,0.25 -0.109,0.473 l -0.22,0 0.096,-1.112 0.173,0 c 0.048,0.05 0.083,0.078 0.102,0.084 0.034,0.012 0.086,0.018 0.154,0.018 l 2.541,0 c 0.105,0 0.19,-0.036 0.256,-0.102 l 0.172,0 0.096,1.112 -0.218,0 c -0.03,-0.183 -0.053,-0.305 -0.071,-0.366 -0.045,-0.153 -0.109,-0.249 -0.19,-0.287 -0.068,-0.032 -0.174,-0.047 -0.318,-0.047 l -0.628,0 z m -4.671,1.688 -0.491,-1.391 -0.448,1.391 0.939,0 z m 0.122,0.329 -1.168,0 -0.224,0.696 c -0.054,0.166 -0.057,0.283 -0.008,0.347 0.047,0.066 0.19,0.099 0.43,0.099 l 0.068,0 0,0.233 -1.416,0 0,-0.233 0.081,0 c 0.144,0 0.26,-0.053 0.347,-0.159 0.061,-0.078 0.119,-0.207 0.177,-0.387 l 0.913,-2.839 -0.058,-0.175 0.79,0 1.067,3.025 c 0.063,0.178 0.125,0.304 0.187,0.376 0.084,0.094 0.199,0.148 0.347,0.159 l 0,0.233 -1.736,0 0,-0.233 0.188,0 c 0.155,0 0.254,-0.037 0.294,-0.114 0.039,-0.073 0.029,-0.186 -0.027,-0.339 l -0.252,-0.689 z m -6.063,-2.096 0,2.779 c 0,0.199 0.027,0.325 0.082,0.376 0.055,0.052 0.183,0.077 0.382,0.077 0.544,0 0.944,-0.177 1.199,-0.532 0.208,-0.292 0.313,-0.656 0.313,-1.093 0,-0.51 -0.132,-0.914 -0.396,-1.209 -0.256,-0.284 -0.644,-0.426 -1.163,-0.426 -0.149,0 -0.289,0.009 -0.417,0.028 l 0,0 z m -1.233,0 0,-0.231 c 0.127,-0.008 0.252,-0.015 0.378,-0.021 l 0.258,-0.013 c 0.018,0 0.093,-0.004 0.224,-0.013 0.285,-0.02 0.529,-0.03 0.73,-0.03 0.695,0 1.2,0.081 1.514,0.24 0.375,0.189 0.636,0.491 0.786,0.906 0.076,0.215 0.114,0.446 0.114,0.691 0,0.521 -0.165,0.967 -0.495,1.334 -0.364,0.406 -0.968,0.608 -1.812,0.608 l -1.697,0 0,-0.233 c 0.169,0 0.289,-0.022 0.356,-0.067 0.093,-0.059 0.139,-0.175 0.139,-0.348 l 0,-2.3 c 0,-0.27 -0.061,-0.432 -0.182,-0.482 -0.07,-0.026 -0.175,-0.041 -0.313,-0.041 l 0,0 z m -4.21,0.506 0,2.249 c 0,0.244 0.068,0.389 0.205,0.44 0.077,0.029 0.184,0.043 0.324,0.043 l 0,0.233 -1.293,0 0,-0.233 0.031,0 c 0.139,0 0.238,-0.025 0.297,-0.073 0.074,-0.055 0.11,-0.156 0.11,-0.302 l 0,-2.731 c -0.113,-0.088 -0.256,-0.132 -0.428,-0.132 l 0,-0.231 1.1,0 2.181,2.536 0,-1.799 c 0,-0.269 -0.062,-0.426 -0.183,-0.468 -0.071,-0.024 -0.18,-0.038 -0.326,-0.038 l -0.052,0 0,-0.231 1.376,0 0,0.231 -0.052,0 c -0.139,0 -0.238,0.015 -0.297,0.041 -0.094,0.045 -0.141,0.132 -0.141,0.262 l 0,3.186 -0.294,0 -2.558,-2.983 z m -2.951,-0.506 0,-0.231 1.385,0 0,0.231 -0.039,0 c -0.173,0 -0.296,0.035 -0.371,0.103 -0.079,0.075 -0.119,0.206 -0.119,0.392 l 0,1.481 c 0,0.527 -0.133,0.926 -0.399,1.192 -0.256,0.258 -0.623,0.387 -1.101,0.387 -0.453,0 -0.817,-0.101 -1.09,-0.303 -0.321,-0.236 -0.482,-0.592 -0.482,-1.072 l 0,-1.775 c 0,-0.158 -0.027,-0.263 -0.081,-0.32 -0.054,-0.056 -0.151,-0.085 -0.291,-0.085 l -0.092,0 0,-0.231 1.671,0 0,0.231 -0.091,0 c -0.252,0 -0.378,0.135 -0.378,0.405 l 0,1.775 c 0,0.442 0.163,0.736 0.488,0.877 0.144,0.065 0.304,0.097 0.479,0.097 0.321,0 0.574,-0.092 0.758,-0.274 0.192,-0.191 0.288,-0.464 0.288,-0.819 l 0,-1.448 c 0,-0.282 -0.06,-0.466 -0.178,-0.549 -0.064,-0.043 -0.151,-0.064 -0.261,-0.064 l -0.096,0 z m -6.788,1.393 c 0,0.562 0.119,1.021 0.355,1.377 0.231,0.352 0.536,0.529 0.915,0.529 0.469,0 0.792,-0.255 0.97,-0.763 0.079,-0.236 0.119,-0.493 0.119,-0.775 0,-0.511 -0.106,-0.943 -0.32,-1.292 -0.226,-0.373 -0.532,-0.559 -0.918,-0.559 -0.462,0 -0.789,0.235 -0.98,0.703 -0.094,0.228 -0.141,0.487 -0.141,0.78 l 0,0 z m -0.797,0.287 c 0,-0.585 0.191,-1.071 0.575,-1.452 0.383,-0.382 0.873,-0.573 1.471,-0.573 0.561,0 1.02,0.177 1.374,0.527 0.355,0.352 0.532,0.806 0.532,1.366 0,0.422 -0.107,0.801 -0.32,1.135 -0.209,0.326 -0.493,0.563 -0.85,0.712 -0.251,0.106 -0.53,0.16 -0.838,0.16 -0.356,0 -0.681,-0.073 -0.972,-0.221 -0.323,-0.165 -0.57,-0.404 -0.741,-0.718 -0.155,-0.284 -0.231,-0.597 -0.231,-0.936 l 0,0 z m -2.758,-1.584 0,1.34 0.743,0 c 0.236,0 0.379,-0.056 0.425,-0.172 0.027,-0.061 0.039,-0.149 0.039,-0.263 l 0.215,0 0,1.185 -0.215,0 c 0,-0.283 -0.122,-0.425 -0.367,-0.425 l -0.84,0 0,0.96 c 0,0.268 0.045,0.426 0.133,0.477 0.049,0.027 0.124,0.04 0.224,0.04 l 0.101,0 0,0.233 -1.594,0 0,-0.233 0.085,0 c 0.115,0 0.197,-0.025 0.243,-0.074 0.047,-0.051 0.07,-0.14 0.07,-0.265 l 0,-2.41 c 0,-0.165 -0.018,-0.282 -0.054,-0.352 -0.05,-0.095 -0.143,-0.143 -0.276,-0.143 l -0.068,0 0,-0.225 2.696,0 0,0.839 -0.194,0 c -0.008,-0.174 -0.029,-0.295 -0.061,-0.361 -0.05,-0.101 -0.141,-0.151 -0.275,-0.151 l -1.03,0 z"
         
         
         style="fill:#405062;fill-rule:evenodd;stroke:none;stroke-width:1" />
      <path
         d="m 218.46442,380.75931 c -0.029,0 -0.057,-0.009 -0.057,-0.057 l 0,-0.172 c 0,-1.226 0,-1.52 0.019,-1.777 0.019,-0.285 0.085,-0.399 0.313,-0.437 0.096,-0.02 0.172,-0.029 0.238,-0.029 0.105,0 0.152,-0.028 0.152,-0.085 0,-0.058 -0.057,-0.076 -0.171,-0.076 -0.332,0 -0.912,0.018 -1.112,0.018 -0.228,0 -0.78,-0.018 -1.226,-0.018 -0.115,0 -0.181,0.018 -0.181,0.076 0,0.057 0.057,0.085 0.143,0.085 0.123,0 0.266,0.009 0.332,0.029 0.267,0.076 0.343,0.161 0.362,0.437 0.008,0.257 0.008,0.485 0.008,1.711 l 0,1.427 c 0,0.741 0,1.378 -0.037,1.72 -0.028,0.238 -0.076,0.389 -0.247,0.428 -0.076,0.019 -0.171,0.029 -0.295,0.029 -0.104,0 -0.133,0.047 -0.133,0.085 0,0.057 0.058,0.087 0.162,0.087 0.332,0 0.884,-0.028 1.074,-0.028 0.238,0 0.818,0.028 1.35999,0.028 0.104,0 0.17,-0.03 0.17,-0.087 0,-0.038 -0.037,-0.085 -0.133,-0.085 -0.12299,0 -0.31299,-0.01 -0.42699,-0.029 -0.248,-0.039 -0.296,-0.19 -0.323,-0.419 -0.039,-0.351 -0.048,-0.969 -0.048,-1.711 l 0,-0.618 c 0,-0.037 0.028,-0.047 0.057,-0.047 l 3.15599,0 c 0.019,0 0.048,0.019 0.048,0.047 l 0,0.618 c 0,0.742 0,1.36 -0.039,1.702 -0.028,0.238 -0.076,0.389 -0.247,0.428 -0.076,0.019 -0.171,0.029 -0.304,0.029 -0.095,0 -0.133,0.047 -0.133,0.085 0,0.057 0.067,0.087 0.181,0.087 0.323,0 0.912,-0.028 1.103,-0.028 0.228,0 0.779,0.028 1.321,0.028 0.105,0 0.171,-0.03 0.171,-0.087 0,-0.038 -0.047,-0.085 -0.133,-0.085 -0.133,0 -0.314,-0.01 -0.428,-0.029 -0.256,-0.039 -0.304,-0.19 -0.333,-0.419 -0.038,-0.351 -0.038,-0.988 -0.038,-1.729 l 0,-1.427 c 0,-1.226 0,-1.454 0.019,-1.711 0.019,-0.285 0.086,-0.399 0.305,-0.437 0.104,-0.02 0.18,-0.029 0.247,-0.029 0.095,0 0.152,-0.028 0.152,-0.085 0,-0.058 -0.057,-0.076 -0.181,-0.076 -0.323,0 -0.874,0.018 -1.074,0.018 -0.219,0 -0.808,-0.018 -1.255,-0.018 -0.124,0 -0.18,0.018 -0.18,0.076 0,0.057 0.047,0.085 0.142,0.085 0.114,0 0.257,0.009 0.323,0.029 0.266,0.076 0.342,0.161 0.362,0.437 0.01,0.257 0.019,0.551 0.019,1.777 l 0,0.172 c 0,0.048 -0.029,0.057 -0.048,0.057 l -3.15599,0 z m -6.085,1.132 c 0,0.741 0,1.378 -0.037,1.72 -0.029,0.238 -0.077,0.389 -0.248,0.428 -0.066,0.019 -0.171,0.029 -0.294,0.029 -0.105,0 -0.134,0.047 -0.134,0.085 0,0.057 0.058,0.087 0.162,0.087 0.333,0 0.903,-0.028 1.093,-0.028 0.238,0 0.799,0.028 1.351,0.028 0.095,0 0.161,-0.03 0.161,-0.087 0,-0.038 -0.038,-0.085 -0.133,-0.085 -0.124,0 -0.314,-0.01 -0.428,-0.029 -0.247,-0.039 -0.294,-0.19 -0.323,-0.419 -0.038,-0.351 -0.048,-0.988 -0.048,-1.729 l 0,-3.271 1.055,0.019 c 0.752,0.01 0.97,0.257 0.989,0.466 l 0.01,0.086 c 0.01,0.123 0.029,0.161 0.095,0.161 0.048,0 0.066,-0.048 0.076,-0.133 0,-0.209 0.019,-0.809 0.019,-0.979 0,-0.124 -0.01,-0.171 -0.067,-0.171 -0.028,0 -0.094,0.019 -0.228,0.037 -0.123,0.02 -0.304,0.038 -0.57,0.038 l -3.394,0 c -0.276,0 -0.59,-0.009 -0.837,-0.038 -0.209,-0.028 -0.295,-0.094 -0.361,-0.094 -0.048,0 -0.076,0.047 -0.095,0.152 -0.019,0.066 -0.181,0.846 -0.181,0.979 0,0.086 0.019,0.133 0.077,0.133 0.056,0 0.075,-0.038 0.095,-0.105 0.018,-0.056 0.056,-0.161 0.142,-0.275 0.123,-0.181 0.323,-0.238 0.809,-0.247 l 1.244,-0.029 0,3.271 z m -6.207,-3.205 c 0,-0.066 0.019,-0.095 0.075,-0.114 0.086,-0.018 0.286,-0.028 0.495,-0.028 0.495,0 1.274,0.295 1.274,1.435 0,0.666 -0.285,1.018 -0.542,1.198 -0.143,0.105 -0.257,0.134 -0.59,0.134 -0.209,0 -0.456,-0.02 -0.637,-0.077 -0.056,-0.028 -0.075,-0.057 -0.075,-0.142 l 0,-2.406 z m -1.065,3.205 c 0,0.741 0,1.378 -0.038,1.72 -0.029,0.238 -0.076,0.389 -0.247,0.428 -0.076,0.019 -0.172,0.029 -0.295,0.029 -0.105,0 -0.133,0.047 -0.133,0.085 0,0.057 0.056,0.087 0.161,0.087 0.333,0 0.865,-0.028 1.027,-0.028 0.124,0 0.818,0.028 1.302,0.028 0.105,0 0.172,-0.03 0.172,-0.087 0,-0.038 -0.039,-0.085 -0.105,-0.085 -0.105,0 -0.285,-0.01 -0.408,-0.029 -0.257,-0.039 -0.296,-0.19 -0.324,-0.428 -0.038,-0.342 -0.047,-0.97 -0.047,-1.72 l 0,-0.114 c 0,-0.048 0.028,-0.067 0.066,-0.067 l 0.751,0.019 c 0.057,0 0.104,0.009 0.152,0.057 0.105,0.123 0.456,0.665 0.789,1.103 0.466,0.627 0.779,1.007 1.141,1.188 0.219,0.113 0.447,0.163 0.913,0.163 l 0.798,0 c 0.105,0 0.162,-0.019 0.162,-0.087 0,-0.038 -0.038,-0.085 -0.104,-0.085 -0.067,0 -0.114,0 -0.2,-0.019 -0.133,-0.03 -0.428,-0.067 -0.894,-0.533 -0.504,-0.504 -1.093,-1.236 -1.835,-2.148 0.818,-0.657 1.16,-1.189 1.16,-1.788 0,-0.542 -0.352,-0.951 -0.589,-1.112 -0.447,-0.295 -1.056,-0.342 -1.588,-0.342 -0.257,0 -1.017,0.018 -1.302,0.018 -0.172,0 -0.704,-0.018 -1.142,-0.018 -0.123,0 -0.189,0.018 -0.189,0.076 0,0.057 0.056,0.085 0.142,0.085 0.124,0 0.267,0.009 0.333,0.029 0.266,0.076 0.342,0.161 0.362,0.437 0.009,0.257 0.009,0.485 0.009,1.711 l 0,1.427 z m -4.725,2.015 c -1.578,0 -2.529,-1.312 -2.529,-2.976 0,-1.996 1.093,-2.491 2.025,-2.491 1.35,0 2.424,1.103 2.424,2.89 0,2.301 -1.331,2.577 -1.92,2.577 l 0,0 z m -0.342,0.438 c 2.158,0 3.508,-1.455 3.508,-3.309 0,-1.855 -1.312,-3.023 -3.423,-3.023 -2.538,0 -3.508,1.787 -3.508,3.165 0,1.436 0.989,3.167 3.423,3.167 l 0,0 z m -10.591,-0.295 c 0.076,0.21 0.123,0.295 0.228,0.295 0.124,0 0.171,-0.095 0.324,-0.429 0.341,-0.741 1.464,-3.603 1.606,-3.945 l 0.019,0 1.702,3.984 c 0.123,0.295 0.18,0.39 0.294,0.39 0.124,0 0.172,-0.095 0.267,-0.381 0.409,-1.208 1.264,-3.774 1.654,-4.792 0.171,-0.466 0.267,-0.77 0.466,-0.846 0.095,-0.029 0.209,-0.038 0.295,-0.038 0.075,0 0.113,-0.038 0.113,-0.095 0,-0.048 -0.057,-0.066 -0.152,-0.066 -0.275,0 -0.636,0.018 -0.694,0.018 -0.076,0 -0.456,-0.018 -0.893,-0.018 -0.134,0 -0.2,0.018 -0.2,0.076 0,0.047 0.066,0.085 0.142,0.085 0.334,0 0.409,0.095 0.409,0.229 0,0.113 -0.028,0.275 -0.085,0.465 -0.294,0.941 -0.931,3.071 -1.093,3.537 l -0.029,0 -1.673,-3.993 c -0.104,-0.257 -0.181,-0.381 -0.276,-0.381 -0.076,0 -0.161,0.067 -0.247,0.295 l -1.598,4.132 -0.027,0 c -0.124,-0.371 -0.884,-2.818 -1.027,-3.35 -0.105,-0.372 -0.181,-0.639 -0.181,-0.744 0,-0.085 0.01,-0.133 0.086,-0.161 0.066,-0.02 0.142,-0.029 0.209,-0.029 0.085,0 0.152,-0.028 0.152,-0.085 0,-0.058 -0.057,-0.076 -0.181,-0.076 -0.485,0 -0.893,0.018 -0.969,0.018 -0.076,0 -0.543,-0.018 -0.97,-0.018 -0.125,0 -0.192,0.018 -0.192,0.076 0,0.057 0.047,0.085 0.133,0.085 0.078,0 0.24,0.009 0.325,0.067 0.124,0.076 0.19,0.266 0.295,0.561 l 1.768,5.134 z m -6.474,-2.158 c 0,0.741 0,1.378 -0.039,1.72 -0.028,0.238 -0.075,0.389 -0.247,0.428 -0.075,0.019 -0.17,0.029 -0.294,0.029 -0.105,0 -0.133,0.047 -0.133,0.085 0,0.057 0.057,0.087 0.161,0.087 0.172,0 0.381,-0.009 0.58,-0.019 0.2,0 0.38,-0.011 0.475,-0.011 0.248,0 0.561,0.011 0.97,0.021 0.409,0.018 0.913,0.028 1.541,0.028 0.313,0 0.389,0 0.446,-0.21 0.048,-0.163 0.114,-0.714 0.114,-0.894 0,-0.086 -0.009,-0.19 -0.076,-0.19 -0.056,0 -0.076,0.037 -0.095,0.123 -0.056,0.333 -0.152,0.504 -0.361,0.599 -0.219,0.095 -0.57,0.105 -0.79,0.105 -0.854,0 -1.111,-0.123 -1.13,-0.676 -0.01,-0.237 0,-0.922 0,-1.197 l 0,-0.646 c 0,-0.048 0.009,-0.086 0.047,-0.086 0.209,0 1.16,0.019 1.312,0.038 0.314,0.029 0.418,0.152 0.466,0.314 0.019,0.104 0.019,0.208 0.028,0.294 0,0.038 0.019,0.067 0.076,0.067 0.076,0 0.086,-0.114 0.086,-0.181 0,-0.057 0.019,-0.381 0.038,-0.542 0.048,-0.408 0.067,-0.542 0.067,-0.589 0,-0.048 -0.029,-0.086 -0.067,-0.086 -0.038,0 -0.067,0.048 -0.133,0.105 -0.076,0.085 -0.199,0.104 -0.399,0.123 -0.191,0.02 -1.274,0.02 -1.464,0.02 -0.048,0 -0.057,-0.039 -0.057,-0.086 l 0,-1.996 c 0,-0.048 0.019,-0.077 0.057,-0.077 0.171,0 1.169,0.019 1.312,0.038 0.417,0.039 0.484,0.153 0.551,0.295 0.048,0.095 0.057,0.238 0.057,0.295 0,0.067 0.009,0.104 0.067,0.104 0.066,0 0.085,-0.094 0.095,-0.132 0.019,-0.096 0.037,-0.447 0.047,-0.533 0.019,-0.371 0.066,-0.466 0.066,-0.523 0,-0.038 -0.009,-0.076 -0.057,-0.076 -0.037,0 -0.085,0.029 -0.133,0.038 -0.066,0.009 -0.199,0.038 -0.351,0.047 -0.162,0.01 -2.016,0 -2.281,0 -0.239,0 -0.771,-0.018 -1.208,-0.018 -0.124,0 -0.191,0.018 -0.191,0.076 0,0.057 0.058,0.085 0.144,0.085 0.123,0 0.265,0.009 0.332,0.029 0.267,0.076 0.342,0.161 0.362,0.437 0.009,0.257 0.009,0.485 0.009,1.711 l 0,1.427 z m -4.126,-1.427 c 0,-1.226 0,-1.454 0.019,-1.711 0.018,-0.285 0.085,-0.399 0.314,-0.437 0.095,-0.02 0.228,-0.029 0.323,-0.029 0.104,0 0.152,-0.028 0.152,-0.085 0,-0.058 -0.057,-0.076 -0.181,-0.076 -0.323,0 -1.007,0.018 -1.207,0.018 -0.228,0 -0.761,-0.018 -1.15,-0.018 -0.124,0 -0.181,0.018 -0.181,0.076 0,0.057 0.047,0.085 0.143,0.085 0.104,0 0.208,0.009 0.275,0.029 0.266,0.076 0.342,0.161 0.361,0.437 0.01,0.257 0.01,0.485 0.01,1.711 l 0,1.427 c 0,0.741 0,1.378 -0.039,1.72 -0.027,0.238 -0.075,0.389 -0.247,0.428 -0.076,0.019 -0.17,0.029 -0.294,0.029 -0.105,0 -0.133,0.047 -0.133,0.085 0,0.057 0.057,0.087 0.162,0.087 0.17,0 0.38,-0.009 0.579,-0.019 0.2,0 0.38,-0.011 0.476,-0.011 0.342,0 0.694,0.011 1.112,0.021 0.419,0.018 0.903,0.028 1.502,0.028 0.437,0 0.476,-0.038 0.533,-0.22 0.066,-0.238 0.123,-0.837 0.123,-0.932 0,-0.095 -0.019,-0.181 -0.076,-0.181 -0.066,0 -0.086,0.048 -0.095,0.124 -0.019,0.152 -0.104,0.38 -0.209,0.485 -0.209,0.219 -0.533,0.229 -0.979,0.229 -0.647,0 -0.97,-0.048 -1.112,-0.172 -0.181,-0.152 -0.181,-0.666 -0.181,-1.701 l 0,-1.427 z m -6.027,1.427 c 0,0.741 0,1.378 -0.039,1.72 -0.028,0.238 -0.076,0.389 -0.247,0.428 -0.066,0.019 -0.171,0.029 -0.294,0.029 -0.105,0 -0.134,0.047 -0.134,0.085 0,0.057 0.057,0.087 0.162,0.087 0.333,0 0.903,-0.028 1.093,-0.028 0.238,0 0.799,0.028 1.35,0.028 0.095,0 0.162,-0.03 0.162,-0.087 0,-0.038 -0.038,-0.085 -0.134,-0.085 -0.123,0 -0.313,-0.01 -0.427,-0.029 -0.247,-0.039 -0.294,-0.19 -0.324,-0.419 -0.037,-0.351 -0.047,-0.988 -0.047,-1.729 l 0,-3.271 1.055,0.019 c 0.751,0.01 0.971,0.257 0.989,0.466 l 0.01,0.086 c 0.009,0.123 0.028,0.161 0.095,0.161 0.047,0 0.067,-0.048 0.076,-0.133 0,-0.209 0.019,-0.809 0.019,-0.979 0,-0.124 -0.009,-0.171 -0.067,-0.171 -0.028,0 -0.095,0.019 -0.228,0.037 -0.123,0.02 -0.304,0.038 -0.57,0.038 l -3.394,0 c -0.276,0 -0.589,-0.009 -0.837,-0.038 -0.209,-0.028 -0.295,-0.094 -0.361,-0.094 -0.048,0 -0.076,0.047 -0.095,0.152 -0.019,0.066 -0.181,0.846 -0.181,0.979 0,0.086 0.02,0.133 0.076,0.133 0.057,0 0.076,-0.038 0.095,-0.105 0.019,-0.056 0.057,-0.161 0.143,-0.275 0.124,-0.181 0.323,-0.238 0.808,-0.247 l 1.246,-0.029 0,3.271 z m -6.018,0 c 0,0.741 0,1.378 -0.038,1.72 -0.029,0.238 -0.076,0.389 -0.247,0.428 -0.067,0.019 -0.172,0.029 -0.295,0.029 -0.105,0 -0.133,0.047 -0.133,0.085 0,0.057 0.056,0.087 0.161,0.087 0.333,0 0.903,-0.028 1.093,-0.028 0.238,0 0.799,0.028 1.351,0.028 0.094,0 0.161,-0.03 0.161,-0.087 0,-0.038 -0.038,-0.085 -0.133,-0.085 -0.124,0 -0.314,-0.01 -0.428,-0.029 -0.247,-0.039 -0.294,-0.19 -0.323,-0.419 -0.038,-0.351 -0.047,-0.988 -0.047,-1.729 l 0,-3.271 1.054,0.019 c 0.752,0.01 0.971,0.257 0.989,0.466 l 0.01,0.086 c 0.009,0.123 0.028,0.161 0.095,0.161 0.048,0 0.067,-0.048 0.076,-0.133 0,-0.209 0.019,-0.809 0.019,-0.979 0,-0.124 -0.009,-0.171 -0.066,-0.171 -0.029,0 -0.096,0.019 -0.228,0.037 -0.125,0.02 -0.305,0.038 -0.571,0.038 l -3.394,0 c -0.276,0 -0.589,-0.009 -0.837,-0.038 -0.209,-0.028 -0.295,-0.094 -0.361,-0.094 -0.047,0 -0.076,0.047 -0.095,0.152 -0.019,0.066 -0.18,0.846 -0.18,0.979 0,0.086 0.018,0.133 0.075,0.133 0.058,0 0.076,-0.038 0.095,-0.105 0.02,-0.056 0.058,-0.161 0.143,-0.275 0.124,-0.181 0.323,-0.238 0.808,-0.247 l 1.246,-0.029 0,3.271 z m -8.699,-0.238 c 0,1.169 0.333,1.768 0.76,2.139 0.609,0.534 1.474,0.552 1.911,0.552 0.542,0 1.179,-0.085 1.768,-0.58 0.704,-0.581 0.799,-1.531 0.799,-2.435 l 0,-0.865 c 0,-1.226 0.01,-1.454 0.019,-1.711 0.019,-0.285 0.076,-0.399 0.304,-0.437 0.105,-0.02 0.153,-0.029 0.247,-0.029 0.096,0 0.143,-0.028 0.143,-0.085 0,-0.058 -0.057,-0.076 -0.171,-0.076 -0.323,0 -0.884,0.018 -0.98,0.018 -0.009,0 -0.569,-0.018 -0.997,-0.018 -0.115,0 -0.172,0.018 -0.172,0.076 0,0.057 0.048,0.085 0.143,0.085 0.095,0 0.238,0.009 0.304,0.029 0.266,0.076 0.333,0.161 0.352,0.437 0.009,0.257 0.019,0.485 0.019,1.711 l 0,1.018 c 0,0.826 -0.019,1.53 -0.485,1.967 -0.333,0.324 -0.76,0.428 -1.122,0.428 -0.285,0 -0.684,-0.028 -1.055,-0.323 -0.408,-0.323 -0.637,-0.779 -0.637,-1.958 l 0,-1.132 c 0,-1.226 0,-1.454 0.019,-1.711 0.019,-0.285 0.086,-0.399 0.304,-0.437 0.105,-0.02 0.153,-0.029 0.248,-0.029 0.085,0 0.133,-0.028 0.133,-0.085 0,-0.058 -0.057,-0.076 -0.181,-0.076 -0.304,0 -0.866,0.018 -1.074,0.018 -0.247,0 -0.809,-0.018 -1.255,-0.018 -0.123,0 -0.181,0.018 -0.181,0.076 0,0.057 0.048,0.085 0.143,0.085 0.114,0 0.256,0.009 0.323,0.029 0.266,0.076 0.343,0.152 0.361,0.437 0.019,0.257 0.01,0.485 0.01,1.711 l 0,1.189 z m -6.703,-0.894 c -0.028,0 -0.057,-0.009 -0.057,-0.057 l 0,-0.172 c 0,-1.226 0,-1.52 0.019,-1.777 0.019,-0.285 0.086,-0.399 0.314,-0.437 0.095,-0.02 0.172,-0.029 0.238,-0.029 0.105,0 0.152,-0.028 0.152,-0.085 0,-0.058 -0.057,-0.076 -0.171,-0.076 -0.333,0 -0.913,0.018 -1.112,0.018 -0.229,0 -0.78,-0.018 -1.227,-0.018 -0.114,0 -0.18,0.018 -0.18,0.076 0,0.057 0.057,0.085 0.142,0.085 0.124,0 0.267,0.009 0.333,0.029 0.266,0.076 0.342,0.161 0.361,0.437 0.01,0.257 0.01,0.485 0.01,1.711 l 0,1.427 c 0,0.741 0,1.378 -0.039,1.72 -0.028,0.238 -0.076,0.389 -0.247,0.428 -0.076,0.019 -0.17,0.029 -0.294,0.029 -0.105,0 -0.133,0.047 -0.133,0.085 0,0.057 0.057,0.087 0.161,0.087 0.333,0 0.884,-0.028 1.074,-0.028 0.238,0 0.818,0.028 1.36,0.028 0.105,0 0.171,-0.03 0.171,-0.087 0,-0.038 -0.038,-0.085 -0.133,-0.085 -0.123,0 -0.314,-0.01 -0.427,-0.029 -0.248,-0.039 -0.295,-0.19 -0.324,-0.419 -0.038,-0.351 -0.048,-0.969 -0.048,-1.711 l 0,-0.618 c 0,-0.037 0.029,-0.047 0.057,-0.047 l 3.157,0 c 0.019,0 0.047,0.019 0.047,0.047 l 0,0.618 c 0,0.742 0,1.36 -0.038,1.702 -0.029,0.238 -0.076,0.389 -0.247,0.428 -0.076,0.019 -0.171,0.029 -0.304,0.029 -0.095,0 -0.133,0.047 -0.133,0.085 0,0.057 0.066,0.087 0.18,0.087 0.324,0 0.913,-0.028 1.103,-0.028 0.228,0 0.779,0.028 1.322,0.028 0.104,0 0.171,-0.03 0.171,-0.087 0,-0.038 -0.048,-0.085 -0.133,-0.085 -0.133,0 -0.314,-0.01 -0.428,-0.029 -0.256,-0.039 -0.304,-0.19 -0.333,-0.419 -0.038,-0.351 -0.038,-0.988 -0.038,-1.729 l 0,-1.427 c 0,-1.226 0,-1.454 0.019,-1.711 0.019,-0.285 0.086,-0.399 0.304,-0.437 0.105,-0.02 0.181,-0.029 0.248,-0.029 0.095,0 0.152,-0.028 0.152,-0.085 0,-0.058 -0.057,-0.076 -0.181,-0.076 -0.324,0 -0.875,0.018 -1.075,0.018 -0.218,0 -0.807,-0.018 -1.254,-0.018 -0.124,0 -0.181,0.018 -0.181,0.076 0,0.057 0.048,0.085 0.143,0.085 0.114,0 0.257,0.009 0.323,0.029 0.266,0.076 0.342,0.161 0.361,0.437 0.01,0.257 0.019,0.551 0.019,1.777 l 0,0.172 c 0,0.048 -0.028,0.057 -0.047,0.057 l -3.157,0 z m -5.219,3.585 c 0.447,0 0.998,-0.047 1.398,-0.334 0.608,-0.427 0.836,-0.912 0.836,-1.511 0,-0.733 -0.342,-1.35 -1.445,-1.959 l -0.342,-0.19 c -0.751,-0.418 -0.884,-0.703 -0.884,-1.064 0,-0.552 0.542,-0.865 1.141,-0.865 0.542,0 0.808,0.228 0.931,0.379 0.181,0.21 0.219,0.456 0.219,0.533 0,0.095 0.028,0.143 0.086,0.143 0.066,0 0.104,-0.086 0.104,-0.257 0,-0.637 0.029,-0.865 0.029,-0.97 0,-0.057 -0.038,-0.085 -0.114,-0.105 -0.219,-0.056 -0.647,-0.132 -1.189,-0.132 -1.159,0 -2.11,0.637 -2.11,1.626 0,0.712 0.323,1.254 1.312,1.834 l 0.485,0.285 c 0.741,0.437 0.827,0.789 0.827,1.141 0,0.57 -0.438,1.026 -1.16,1.026 -0.523,0 -1.15,-0.199 -1.331,-0.797 -0.048,-0.143 -0.076,-0.315 -0.076,-0.419 0,-0.057 -0.01,-0.134 -0.086,-0.134 -0.066,0 -0.105,0.086 -0.105,0.21 -0.009,0.133 -0.047,0.637 -0.047,1.075 0,0.18 0.028,0.218 0.162,0.275 0.361,0.163 0.875,0.21 1.359,0.21 l 0,0 z"
         
         
         style="fill:#405062;fill-rule:evenodd;stroke:none;stroke-width:1" />
      <path
         d="m 218.46442,380.75931 c -0.029,0 -0.057,-0.009 -0.057,-0.057 l 0,-0.172 c 0,-1.226 0,-1.52 0.019,-1.777 0.019,-0.285 0.085,-0.399 0.313,-0.437 0.096,-0.02 0.172,-0.029 0.238,-0.029 0.105,0 0.152,-0.028 0.152,-0.085 0,-0.058 -0.057,-0.076 -0.171,-0.076 -0.332,0 -0.912,0.018 -1.112,0.018 -0.228,0 -0.78,-0.018 -1.226,-0.018 -0.115,0 -0.181,0.018 -0.181,0.076 0,0.057 0.057,0.085 0.143,0.085 0.123,0 0.266,0.009 0.332,0.029 0.267,0.076 0.343,0.161 0.362,0.437 0.008,0.257 0.008,0.485 0.008,1.711 l 0,1.427 c 0,0.741 0,1.378 -0.037,1.72 -0.028,0.238 -0.076,0.389 -0.247,0.428 -0.076,0.019 -0.171,0.029 -0.295,0.029 -0.104,0 -0.133,0.047 -0.133,0.085 0,0.057 0.058,0.087 0.162,0.087 0.332,0 0.884,-0.028 1.074,-0.028 0.238,0 0.818,0.028 1.35999,0.028 0.104,0 0.17,-0.03 0.17,-0.087 0,-0.038 -0.037,-0.085 -0.133,-0.085 -0.12299,0 -0.31299,-0.01 -0.42699,-0.029 -0.248,-0.039 -0.296,-0.19 -0.323,-0.419 -0.039,-0.351 -0.048,-0.969 -0.048,-1.711 l 0,-0.618 c 0,-0.037 0.028,-0.047 0.057,-0.047 l 3.15599,0 c 0.019,0 0.048,0.019 0.048,0.047 l 0,0.618 c 0,0.742 0,1.36 -0.039,1.702 -0.028,0.238 -0.075,0.389 -0.247,0.428 -0.076,0.019 -0.171,0.029 -0.304,0.029 -0.095,0 -0.133,0.047 -0.133,0.085 0,0.057 0.067,0.087 0.181,0.087 0.323,0 0.912,-0.028 1.103,-0.028 0.228,0 0.779,0.028 1.321,0.028 0.105,0 0.171,-0.03 0.171,-0.087 0,-0.038 -0.047,-0.085 -0.133,-0.085 -0.133,0 -0.314,-0.01 -0.428,-0.029 -0.256,-0.039 -0.304,-0.19 -0.333,-0.419 -0.038,-0.351 -0.038,-0.988 -0.038,-1.729 l 0,-1.427 c 0,-1.226 0,-1.454 0.019,-1.711 0.019,-0.285 0.086,-0.399 0.305,-0.437 0.104,-0.02 0.18,-0.029 0.247,-0.029 0.095,0 0.152,-0.028 0.152,-0.085 0,-0.058 -0.057,-0.076 -0.181,-0.076 -0.323,0 -0.874,0.018 -1.074,0.018 -0.219,0 -0.808,-0.018 -1.255,-0.018 -0.124,0 -0.18,0.018 -0.18,0.076 0,0.057 0.047,0.085 0.142,0.085 0.114,0 0.257,0.009 0.323,0.029 0.267,0.076 0.342,0.161 0.362,0.437 0.01,0.257 0.019,0.551 0.019,1.777 l 0,0.172 c 0,0.048 -0.029,0.057 -0.048,0.057 l -3.15599,0 z m -6.085,1.132 c 0,0.741 0,1.378 -0.037,1.72 -0.029,0.238 -0.077,0.389 -0.248,0.428 -0.066,0.019 -0.171,0.029 -0.294,0.029 -0.105,0 -0.134,0.047 -0.134,0.085 0,0.057 0.058,0.087 0.162,0.087 0.333,0 0.903,-0.028 1.093,-0.028 0.238,0 0.799,0.028 1.351,0.028 0.095,0 0.161,-0.03 0.161,-0.087 0,-0.038 -0.038,-0.085 -0.133,-0.085 -0.124,0 -0.314,-0.01 -0.428,-0.029 -0.247,-0.039 -0.294,-0.19 -0.323,-0.419 -0.038,-0.351 -0.048,-0.988 -0.048,-1.729 l 0,-3.271 1.055,0.019 c 0.752,0.01 0.97,0.257 0.989,0.466 l 0.01,0.086 c 0.01,0.123 0.029,0.161 0.095,0.161 0.048,0 0.066,-0.048 0.076,-0.133 0,-0.209 0.019,-0.809 0.019,-0.979 0,-0.124 -0.01,-0.171 -0.067,-0.171 -0.028,0 -0.094,0.019 -0.228,0.037 -0.123,0.02 -0.304,0.038 -0.57,0.038 l -3.394,0 c -0.276,0 -0.59,-0.009 -0.837,-0.038 -0.209,-0.028 -0.295,-0.094 -0.361,-0.094 -0.048,0 -0.076,0.047 -0.095,0.152 -0.019,0.066 -0.181,0.846 -0.181,0.979 0,0.086 0.019,0.133 0.077,0.133 0.056,0 0.075,-0.038 0.095,-0.105 0.018,-0.056 0.056,-0.161 0.142,-0.275 0.123,-0.181 0.323,-0.238 0.809,-0.247 l 1.244,-0.029 0,3.271 z m -6.207,-3.205 c 0,-0.066 0.019,-0.095 0.075,-0.114 0.086,-0.018 0.286,-0.028 0.495,-0.028 0.495,0 1.274,0.295 1.274,1.435 0,0.666 -0.285,1.018 -0.542,1.198 -0.143,0.105 -0.257,0.134 -0.59,0.134 -0.209,0 -0.456,-0.02 -0.637,-0.077 -0.056,-0.028 -0.075,-0.057 -0.075,-0.142 l 0,-2.406 z m -1.065,3.205 c 0,0.741 0,1.378 -0.038,1.72 -0.029,0.238 -0.076,0.389 -0.247,0.428 -0.076,0.019 -0.172,0.029 -0.295,0.029 -0.105,0 -0.133,0.047 -0.133,0.085 0,0.057 0.056,0.087 0.161,0.087 0.333,0 0.865,-0.028 1.027,-0.028 0.124,0 0.818,0.028 1.302,0.028 0.105,0 0.172,-0.03 0.172,-0.087 0,-0.038 -0.039,-0.085 -0.105,-0.085 -0.105,0 -0.285,-0.01 -0.408,-0.029 -0.257,-0.039 -0.296,-0.19 -0.324,-0.428 -0.038,-0.342 -0.047,-0.97 -0.047,-1.72 l 0,-0.114 c 0,-0.048 0.028,-0.067 0.066,-0.067 l 0.751,0.019 c 0.057,0 0.104,0.009 0.152,0.057 0.105,0.123 0.456,0.665 0.789,1.103 0.466,0.627 0.779,1.007 1.141,1.188 0.219,0.113 0.447,0.163 0.913,0.163 l 0.798,0 c 0.105,0 0.162,-0.019 0.162,-0.087 0,-0.038 -0.038,-0.085 -0.104,-0.085 -0.067,0 -0.114,0 -0.2,-0.019 -0.133,-0.03 -0.428,-0.067 -0.894,-0.533 -0.504,-0.504 -1.093,-1.236 -1.835,-2.148 0.818,-0.657 1.16,-1.189 1.16,-1.788 0,-0.542 -0.352,-0.951 -0.589,-1.112 -0.447,-0.295 -1.056,-0.342 -1.588,-0.342 -0.257,0 -1.017,0.018 -1.302,0.018 -0.172,0 -0.704,-0.018 -1.142,-0.018 -0.123,0 -0.189,0.018 -0.189,0.076 0,0.057 0.056,0.085 0.142,0.085 0.124,0 0.267,0.009 0.333,0.029 0.266,0.076 0.342,0.161 0.362,0.437 0.009,0.257 0.009,0.485 0.009,1.711 l 0,1.427 z m -4.725,2.015 c -1.578,0 -2.529,-1.312 -2.529,-2.976 0,-1.996 1.093,-2.491 2.025,-2.491 1.35,0 2.424,1.103 2.424,2.89 0,2.301 -1.331,2.577 -1.92,2.577 l 0,0 z m -0.342,0.438 c 2.158,0 3.508,-1.455 3.508,-3.309 0,-1.855 -1.312,-3.023 -3.423,-3.023 -2.538,0 -3.508,1.787 -3.508,3.165 0,1.436 0.989,3.167 3.423,3.167 l 0,0 z m -10.591,-0.295 c 0.076,0.21 0.123,0.295 0.228,0.295 0.124,0 0.171,-0.095 0.324,-0.429 0.341,-0.741 1.464,-3.603 1.606,-3.945 l 0.019,0 1.702,3.984 c 0.123,0.295 0.18,0.39 0.294,0.39 0.124,0 0.172,-0.095 0.267,-0.381 0.409,-1.208 1.264,-3.774 1.654,-4.792 0.171,-0.466 0.267,-0.77 0.466,-0.846 0.095,-0.029 0.209,-0.038 0.295,-0.038 0.075,0 0.113,-0.038 0.113,-0.095 0,-0.048 -0.057,-0.066 -0.152,-0.066 -0.275,0 -0.636,0.018 -0.694,0.018 -0.076,0 -0.456,-0.018 -0.893,-0.018 -0.134,0 -0.2,0.018 -0.2,0.076 0,0.047 0.066,0.085 0.142,0.085 0.334,0 0.409,0.095 0.409,0.229 0,0.113 -0.028,0.275 -0.085,0.465 -0.294,0.941 -0.931,3.071 -1.093,3.537 l -0.029,0 -1.673,-3.993 c -0.104,-0.257 -0.181,-0.381 -0.276,-0.381 -0.076,0 -0.161,0.067 -0.247,0.295 l -1.598,4.132 -0.027,0 c -0.124,-0.371 -0.884,-2.818 -1.027,-3.35 -0.105,-0.372 -0.181,-0.639 -0.181,-0.744 0,-0.085 0.01,-0.133 0.086,-0.161 0.066,-0.02 0.142,-0.029 0.209,-0.029 0.085,0 0.152,-0.028 0.152,-0.085 0,-0.058 -0.057,-0.076 -0.181,-0.076 -0.485,0 -0.893,0.018 -0.969,0.018 -0.076,0 -0.543,-0.018 -0.97,-0.018 -0.125,0 -0.192,0.018 -0.192,0.076 0,0.057 0.047,0.085 0.133,0.085 0.078,0 0.24,0.009 0.325,0.067 0.124,0.076 0.19,0.266 0.295,0.561 l 1.768,5.134 z m -6.474,-2.158 c 0,0.741 0,1.378 -0.039,1.72 -0.028,0.238 -0.075,0.389 -0.247,0.428 -0.075,0.019 -0.17,0.029 -0.294,0.029 -0.105,0 -0.133,0.047 -0.133,0.085 0,0.057 0.057,0.087 0.161,0.087 0.172,0 0.381,-0.009 0.58,-0.019 0.2,0 0.38,-0.011 0.475,-0.011 0.248,0 0.561,0.011 0.97,0.021 0.409,0.018 0.913,0.028 1.541,0.028 0.313,0 0.389,0 0.446,-0.21 0.048,-0.163 0.114,-0.714 0.114,-0.894 0,-0.086 -0.009,-0.19 -0.076,-0.19 -0.056,0 -0.076,0.037 -0.095,0.123 -0.056,0.333 -0.152,0.504 -0.361,0.599 -0.219,0.095 -0.57,0.105 -0.79,0.105 -0.854,0 -1.111,-0.123 -1.13,-0.676 -0.01,-0.237 0,-0.922 0,-1.197 l 0,-0.646 c 0,-0.048 0.009,-0.086 0.047,-0.086 0.209,0 1.16,0.019 1.312,0.038 0.314,0.029 0.418,0.152 0.466,0.314 0.019,0.104 0.019,0.208 0.028,0.294 0,0.038 0.019,0.067 0.076,0.067 0.076,0 0.086,-0.114 0.086,-0.181 0,-0.057 0.019,-0.381 0.038,-0.542 0.048,-0.408 0.067,-0.542 0.067,-0.589 0,-0.048 -0.029,-0.086 -0.067,-0.086 -0.038,0 -0.067,0.048 -0.133,0.105 -0.076,0.085 -0.199,0.104 -0.399,0.123 -0.191,0.02 -1.274,0.02 -1.464,0.02 -0.048,0 -0.057,-0.039 -0.057,-0.086 l 0,-1.996 c 0,-0.048 0.019,-0.077 0.057,-0.077 0.171,0 1.169,0.019 1.312,0.038 0.417,0.039 0.484,0.153 0.551,0.295 0.048,0.095 0.057,0.238 0.057,0.295 0,0.067 0.009,0.104 0.067,0.104 0.066,0 0.085,-0.094 0.095,-0.132 0.019,-0.096 0.037,-0.447 0.047,-0.533 0.019,-0.371 0.066,-0.466 0.066,-0.523 0,-0.038 -0.009,-0.076 -0.057,-0.076 -0.037,0 -0.085,0.029 -0.133,0.038 -0.066,0.009 -0.199,0.038 -0.351,0.047 -0.162,0.01 -2.016,0 -2.281,0 -0.239,0 -0.771,-0.018 -1.208,-0.018 -0.124,0 -0.191,0.018 -0.191,0.076 0,0.057 0.058,0.085 0.144,0.085 0.123,0 0.265,0.009 0.332,0.029 0.267,0.076 0.342,0.161 0.362,0.437 0.009,0.257 0.009,0.485 0.009,1.711 l 0,1.427 z m -4.126,-1.427 c 0,-1.226 0,-1.454 0.019,-1.711 0.018,-0.285 0.085,-0.399 0.314,-0.437 0.095,-0.02 0.228,-0.029 0.323,-0.029 0.104,0 0.152,-0.028 0.152,-0.085 0,-0.058 -0.057,-0.076 -0.181,-0.076 -0.323,0 -1.007,0.018 -1.207,0.018 -0.228,0 -0.761,-0.018 -1.15,-0.018 -0.124,0 -0.181,0.018 -0.181,0.076 0,0.057 0.047,0.085 0.143,0.085 0.104,0 0.208,0.009 0.275,0.029 0.266,0.076 0.342,0.161 0.361,0.437 0.01,0.257 0.01,0.485 0.01,1.711 l 0,1.427 c 0,0.741 0,1.378 -0.039,1.72 -0.027,0.238 -0.075,0.389 -0.247,0.428 -0.076,0.019 -0.17,0.029 -0.294,0.029 -0.105,0 -0.133,0.047 -0.133,0.085 0,0.057 0.057,0.087 0.162,0.087 0.17,0 0.38,-0.009 0.579,-0.019 0.2,0 0.38,-0.011 0.476,-0.011 0.342,0 0.694,0.011 1.112,0.021 0.419,0.018 0.903,0.028 1.502,0.028 0.437,0 0.476,-0.038 0.533,-0.22 0.066,-0.238 0.123,-0.837 0.123,-0.932 0,-0.095 -0.019,-0.181 -0.076,-0.181 -0.066,0 -0.086,0.048 -0.095,0.124 -0.019,0.152 -0.104,0.38 -0.209,0.485 -0.209,0.219 -0.533,0.229 -0.979,0.229 -0.647,0 -0.97,-0.048 -1.112,-0.172 -0.181,-0.152 -0.181,-0.666 -0.181,-1.701 l 0,-1.427 z m -6.027,1.427 c 0,0.741 0,1.378 -0.039,1.72 -0.028,0.238 -0.076,0.389 -0.247,0.428 -0.066,0.019 -0.171,0.029 -0.294,0.029 -0.105,0 -0.134,0.047 -0.134,0.085 0,0.057 0.057,0.087 0.162,0.087 0.333,0 0.903,-0.028 1.093,-0.028 0.238,0 0.799,0.028 1.35,0.028 0.095,0 0.162,-0.03 0.162,-0.087 0,-0.038 -0.038,-0.085 -0.134,-0.085 -0.123,0 -0.313,-0.01 -0.427,-0.029 -0.247,-0.039 -0.294,-0.19 -0.324,-0.419 -0.037,-0.351 -0.047,-0.988 -0.047,-1.729 l 0,-3.271 1.055,0.019 c 0.751,0.01 0.971,0.257 0.989,0.466 l 0.01,0.086 c 0.009,0.123 0.028,0.161 0.095,0.161 0.047,0 0.067,-0.048 0.076,-0.133 0,-0.209 0.019,-0.809 0.019,-0.979 0,-0.124 -0.009,-0.171 -0.067,-0.171 -0.028,0 -0.095,0.019 -0.228,0.037 -0.123,0.02 -0.304,0.038 -0.57,0.038 l -3.394,0 c -0.276,0 -0.589,-0.009 -0.837,-0.038 -0.209,-0.028 -0.295,-0.094 -0.361,-0.094 -0.048,0 -0.076,0.047 -0.095,0.152 -0.019,0.066 -0.181,0.846 -0.181,0.979 0,0.086 0.02,0.133 0.076,0.133 0.057,0 0.076,-0.038 0.095,-0.105 0.019,-0.056 0.057,-0.161 0.143,-0.275 0.124,-0.181 0.323,-0.238 0.808,-0.247 l 1.246,-0.029 0,3.271 z m -6.018,0 c 0,0.741 0,1.378 -0.038,1.72 -0.029,0.238 -0.076,0.389 -0.247,0.428 -0.067,0.019 -0.172,0.029 -0.295,0.029 -0.105,0 -0.133,0.047 -0.133,0.085 0,0.057 0.056,0.087 0.161,0.087 0.333,0 0.903,-0.028 1.093,-0.028 0.238,0 0.799,0.028 1.351,0.028 0.094,0 0.161,-0.03 0.161,-0.087 0,-0.038 -0.038,-0.085 -0.133,-0.085 -0.124,0 -0.314,-0.01 -0.428,-0.029 -0.247,-0.039 -0.294,-0.19 -0.323,-0.419 -0.038,-0.351 -0.047,-0.988 -0.047,-1.729 l 0,-3.271 1.054,0.019 c 0.752,0.01 0.971,0.257 0.989,0.466 l 0.01,0.086 c 0.009,0.123 0.028,0.161 0.095,0.161 0.048,0 0.067,-0.048 0.076,-0.133 0,-0.209 0.019,-0.809 0.019,-0.979 0,-0.124 -0.009,-0.171 -0.066,-0.171 -0.029,0 -0.096,0.019 -0.228,0.037 -0.125,0.02 -0.305,0.038 -0.571,0.038 l -3.394,0 c -0.276,0 -0.589,-0.009 -0.837,-0.038 -0.209,-0.028 -0.295,-0.094 -0.361,-0.094 -0.047,0 -0.076,0.047 -0.095,0.152 -0.019,0.066 -0.18,0.846 -0.18,0.979 0,0.086 0.018,0.133 0.075,0.133 0.058,0 0.076,-0.038 0.095,-0.105 0.02,-0.056 0.058,-0.161 0.143,-0.275 0.124,-0.181 0.323,-0.238 0.808,-0.247 l 1.246,-0.029 0,3.271 z m -8.699,-0.238 c 0,1.169 0.333,1.768 0.76,2.139 0.609,0.534 1.474,0.552 1.911,0.552 0.542,0 1.179,-0.085 1.768,-0.58 0.704,-0.581 0.799,-1.531 0.799,-2.435 l 0,-0.865 c 0,-1.226 0.01,-1.454 0.019,-1.711 0.019,-0.285 0.076,-0.399 0.304,-0.437 0.105,-0.02 0.153,-0.029 0.247,-0.029 0.096,0 0.143,-0.028 0.143,-0.085 0,-0.058 -0.057,-0.076 -0.171,-0.076 -0.323,0 -0.884,0.018 -0.98,0.018 -0.009,0 -0.569,-0.018 -0.997,-0.018 -0.115,0 -0.172,0.018 -0.172,0.076 0,0.057 0.048,0.085 0.143,0.085 0.095,0 0.238,0.009 0.304,0.029 0.266,0.076 0.333,0.161 0.352,0.437 0.009,0.257 0.019,0.485 0.019,1.711 l 0,1.018 c 0,0.826 -0.019,1.53 -0.485,1.967 -0.333,0.324 -0.76,0.428 -1.122,0.428 -0.285,0 -0.684,-0.028 -1.055,-0.323 -0.408,-0.323 -0.637,-0.779 -0.637,-1.958 l 0,-1.132 c 0,-1.226 0,-1.454 0.019,-1.711 0.019,-0.285 0.086,-0.399 0.304,-0.437 0.105,-0.02 0.153,-0.029 0.248,-0.029 0.085,0 0.133,-0.028 0.133,-0.085 0,-0.058 -0.057,-0.076 -0.181,-0.076 -0.304,0 -0.866,0.018 -1.074,0.018 -0.247,0 -0.809,-0.018 -1.255,-0.018 -0.123,0 -0.181,0.018 -0.181,0.076 0,0.057 0.048,0.085 0.143,0.085 0.114,0 0.256,0.009 0.323,0.029 0.266,0.076 0.343,0.152 0.361,0.437 0.019,0.257 0.01,0.485 0.01,1.711 l 0,1.189 z m -6.703,-0.894 c -0.028,0 -0.057,-0.009 -0.057,-0.057 l 0,-0.172 c 0,-1.226 0,-1.52 0.019,-1.777 0.019,-0.285 0.086,-0.399 0.314,-0.437 0.095,-0.02 0.171,-0.029 0.238,-0.029 0.105,0 0.152,-0.028 0.152,-0.085 0,-0.058 -0.057,-0.076 -0.171,-0.076 -0.333,0 -0.913,0.018 -1.112,0.018 -0.229,0 -0.78,-0.018 -1.227,-0.018 -0.114,0 -0.18,0.018 -0.18,0.076 0,0.057 0.057,0.085 0.142,0.085 0.124,0 0.267,0.009 0.333,0.029 0.266,0.076 0.342,0.161 0.361,0.437 0.01,0.257 0.01,0.485 0.01,1.711 l 0,1.427 c 0,0.741 0,1.378 -0.039,1.72 -0.028,0.238 -0.076,0.389 -0.247,0.428 -0.076,0.019 -0.17,0.029 -0.294,0.029 -0.105,0 -0.133,0.047 -0.133,0.085 0,0.057 0.057,0.087 0.161,0.087 0.333,0 0.884,-0.028 1.074,-0.028 0.238,0 0.818,0.028 1.36,0.028 0.105,0 0.171,-0.03 0.171,-0.087 0,-0.038 -0.038,-0.085 -0.133,-0.085 -0.123,0 -0.314,-0.01 -0.427,-0.029 -0.248,-0.039 -0.295,-0.19 -0.324,-0.419 -0.038,-0.351 -0.048,-0.969 -0.048,-1.711 l 0,-0.618 c 0,-0.037 0.029,-0.047 0.057,-0.047 l 3.157,0 c 0.019,0 0.047,0.019 0.047,0.047 l 0,0.618 c 0,0.742 0,1.36 -0.038,1.702 -0.029,0.238 -0.076,0.389 -0.247,0.428 -0.076,0.019 -0.171,0.029 -0.304,0.029 -0.095,0 -0.133,0.047 -0.133,0.085 0,0.057 0.066,0.087 0.18,0.087 0.324,0 0.913,-0.028 1.103,-0.028 0.228,0 0.779,0.028 1.322,0.028 0.104,0 0.171,-0.03 0.171,-0.087 0,-0.038 -0.048,-0.085 -0.133,-0.085 -0.133,0 -0.314,-0.01 -0.428,-0.029 -0.256,-0.039 -0.304,-0.19 -0.333,-0.419 -0.038,-0.351 -0.038,-0.988 -0.038,-1.729 l 0,-1.427 c 0,-1.226 0,-1.454 0.019,-1.711 0.019,-0.285 0.086,-0.399 0.304,-0.437 0.105,-0.02 0.181,-0.029 0.248,-0.029 0.095,0 0.152,-0.028 0.152,-0.085 0,-0.058 -0.057,-0.076 -0.181,-0.076 -0.324,0 -0.875,0.018 -1.075,0.018 -0.218,0 -0.807,-0.018 -1.254,-0.018 -0.124,0 -0.181,0.018 -0.181,0.076 0,0.057 0.048,0.085 0.143,0.085 0.114,0 0.257,0.009 0.323,0.029 0.266,0.076 0.342,0.161 0.361,0.437 0.01,0.257 0.019,0.551 0.019,1.777 l 0,0.172 c 0,0.048 -0.028,0.057 -0.047,0.057 l -3.157,0 z m -5.219,3.585 c 0.447,0 0.998,-0.047 1.398,-0.334 0.608,-0.427 0.836,-0.912 0.836,-1.511 0,-0.733 -0.342,-1.35 -1.445,-1.959 l -0.342,-0.19 c -0.751,-0.418 -0.884,-0.703 -0.884,-1.064 0,-0.552 0.542,-0.865 1.141,-0.865 0.542,0 0.808,0.228 0.931,0.379 0.181,0.21 0.219,0.456 0.219,0.533 0,0.095 0.028,0.143 0.086,0.143 0.066,0 0.104,-0.086 0.104,-0.257 0,-0.637 0.029,-0.865 0.029,-0.97 0,-0.057 -0.038,-0.085 -0.114,-0.105 -0.219,-0.056 -0.647,-0.132 -1.189,-0.132 -1.159,0 -2.11,0.637 -2.11,1.626 0,0.712 0.323,1.254 1.312,1.834 l 0.485,0.285 c 0.741,0.437 0.827,0.789 0.827,1.141 0,0.57 -0.438,1.026 -1.16,1.026 -0.523,0 -1.151,-0.199 -1.331,-0.797 -0.048,-0.143 -0.076,-0.315 -0.076,-0.419 0,-0.057 -0.01,-0.134 -0.086,-0.134 -0.066,0 -0.105,0.086 -0.105,0.21 -0.009,0.133 -0.047,0.637 -0.047,1.075 0,0.18 0.028,0.218 0.162,0.275 0.361,0.163 0.875,0.21 1.359,0.21 l 0,0 z"
         
         
         style="fill:#405062;fill-rule:evenodd;stroke:none;stroke-width:1" />
      <path
         d="m 126.90102,373.15841 c -4.166,1.993 -6.752,5.77 -6.609,9.212 0.115,2.759 2.258,6.181 5.799,8.287 -4.331,0.132 -6.907,-5.146 -6.801,-7.703 -0.618,2.975 0.461,8.588 6.171,10.616 1.881,0.668 5.397,0.772 6.967,-0.36 2.715,-1.954 1.623,-4.647 -0.613,-6.482 -2.587,-2.123 -4.858,-3.529 -6.162,-6.412 -0.886,-1.958 -1.205,-4.398 1.248,-7.158"
         
         
         style="fill:#405062;fill-rule:evenodd;stroke:none;stroke-width:1" />
      <path
         d="m 129.12222,382.36041 c -3.666,-3.758 -2.9,-6.299 -0.556,-9.555 1.092,-1.516 2.17,-3.031 1.988,-5.007 5.581,5.957 0.361,7.903 3.102,10.952 0.388,-1.682 1.571,-3.44 3.224,-4.705 -0.458,4.733 1.103,4.882 2.475,7.797 2.118,4.497 -0.812,9.488 -5.184,11.565 1.856,-1.823 2.049,-4.326 -0.137,-6.791 -1.112,-1.254 -3.129,-2.429 -4.912,-4.256"
         
         
         style="fill:#405062;fill-rule:evenodd;stroke:none;stroke-width:1" />
      <path
         d="m 129.12222,382.36041 c -3.666,-3.758 -2.9,-6.299 -0.556,-9.555 1.092,-1.516 2.17,-3.031 1.988,-5.007 5.581,5.957 0.361,7.903 3.102,10.952 0.388,-1.682 1.571,-3.44 3.224,-4.705 -0.458,4.733 1.103,4.882 2.475,7.797 2.118,4.497 -0.812,9.488 -5.184,11.565 1.856,-1.823 2.049,-4.326 -0.137,-6.791 -1.112,-1.254 -3.129,-2.429 -4.912,-4.256"
         
         
         style="fill:#405062;fill-rule:evenodd;stroke:none;stroke-width:1" />
      <path
         d="m 186.24942,386.96451 0,2.249 c 0,0.244 0.069,0.389 0.205,0.44 0.077,0.029 0.185,0.043 0.325,0.043 l 0,0.233 -1.294,0 0,-0.233 0.031,0 c 0.14,0 0.238,-0.025 0.298,-0.073 0.072,-0.055 0.109,-0.156 0.109,-0.302 l 0,-2.731 c -0.113,-0.088 -0.255,-0.132 -0.428,-0.132 l 0,-0.231 1.101,0 2.18,2.536 0,-1.799 c 0,-0.269 -0.061,-0.426 -0.183,-0.468 -0.071,-0.024 -0.179,-0.038 -0.325,-0.038 l -0.053,0 0,-0.231 1.377,0 0,0.231 -0.053,0 c -0.139,0 -0.237,0.015 -0.297,0.041 -0.094,0.045 -0.141,0.132 -0.141,0.262 l 0,3.186 -0.294,0 -2.558,-2.983 z m -4.973,0.887 c 0,0.562 0.118,1.021 0.354,1.377 0.231,0.352 0.537,0.529 0.916,0.529 0.469,0 0.792,-0.255 0.97,-0.763 0.079,-0.236 0.119,-0.493 0.119,-0.775 0,-0.511 -0.106,-0.943 -0.32,-1.292 -0.226,-0.373 -0.532,-0.559 -0.918,-0.559 -0.463,0 -0.789,0.235 -0.981,0.703 -0.093,0.228 -0.14,0.487 -0.14,0.78 l 0,0 z m -0.798,0.287 c 0,-0.585 0.192,-1.071 0.575,-1.452 0.382,-0.382 0.873,-0.573 1.471,-0.573 0.562,0 1.02,0.177 1.374,0.527 0.356,0.352 0.532,0.806 0.532,1.366 0,0.422 -0.106,0.801 -0.32,1.135 -0.209,0.326 -0.492,0.563 -0.85,0.712 -0.251,0.106 -0.529,0.16 -0.837,0.16 -0.356,0 -0.681,-0.073 -0.973,-0.221 -0.323,-0.165 -0.569,-0.404 -0.741,-0.718 -0.154,-0.284 -0.231,-0.597 -0.231,-0.936 l 0,0 z m -2.752,-1.68 0,-0.231 1.697,0 0,0.231 -0.088,0 c -0.271,0 -0.407,0.15 -0.407,0.448 l 0,2.358 c 0,0.16 0.033,0.273 0.1,0.336 0.065,0.064 0.171,0.096 0.317,0.096 l 0.078,0 0,0.233 -1.697,0 0,-0.233 0.076,0 c 0.259,0 0.388,-0.136 0.388,-0.409 l 0,-2.381 c 0,-0.161 -0.029,-0.276 -0.088,-0.344 -0.06,-0.068 -0.162,-0.104 -0.306,-0.104 l -0.07,0 z m -2.35,0.079 0,2.713 c 0,0.177 0.038,0.298 0.115,0.362 0.065,0.056 0.182,0.084 0.349,0.084 l 0.128,0 0,0.233 -1.922,0 0,-0.233 0.18,0 c 0.274,0 0.412,-0.148 0.412,-0.446 l 0,-2.713 -0.631,0 c -0.127,0 -0.219,0.009 -0.274,0.029 -0.091,0.031 -0.155,0.097 -0.193,0.198 -0.037,0.091 -0.073,0.25 -0.109,0.473 l -0.22,0 0.096,-1.112 0.173,0 c 0.048,0.05 0.083,0.078 0.102,0.084 0.034,0.012 0.086,0.018 0.154,0.018 l 2.541,0 c 0.105,0 0.19,-0.036 0.256,-0.102 l 0.172,0 0.096,1.112 -0.218,0 c -0.03,-0.183 -0.053,-0.305 -0.071,-0.366 -0.045,-0.153 -0.109,-0.249 -0.19,-0.287 -0.068,-0.032 -0.174,-0.047 -0.318,-0.047 l -0.628,0 z m -4.671,1.688 -0.491,-1.391 -0.448,1.391 0.939,0 z m 0.122,0.329 -1.168,0 -0.224,0.696 c -0.054,0.166 -0.057,0.283 -0.008,0.347 0.047,0.066 0.19,0.099 0.43,0.099 l 0.068,0 0,0.233 -1.416,0 0,-0.233 0.081,0 c 0.144,0 0.26,-0.053 0.347,-0.159 0.061,-0.078 0.119,-0.207 0.177,-0.387 l 0.913,-2.839 -0.058,-0.175 0.79,0 1.066,3.025 c 0.064,0.178 0.126,0.304 0.188,0.376 0.084,0.094 0.199,0.148 0.347,0.159 l 0,0.233 -1.736,0 0,-0.233 0.188,0 c 0.155,0 0.254,-0.037 0.294,-0.114 0.039,-0.073 0.029,-0.186 -0.027,-0.339 l -0.252,-0.689 z m -6.063,-2.096 0,2.779 c 0,0.199 0.027,0.325 0.082,0.376 0.055,0.052 0.183,0.077 0.382,0.077 0.544,0 0.944,-0.177 1.199,-0.532 0.208,-0.292 0.313,-0.656 0.313,-1.093 0,-0.51 -0.132,-0.914 -0.396,-1.209 -0.256,-0.284 -0.644,-0.426 -1.163,-0.426 -0.149,0 -0.289,0.009 -0.417,0.028 l 0,0 z m -1.233,0 0,-0.231 c 0.127,-0.008 0.252,-0.015 0.378,-0.021 l 0.258,-0.013 c 0.018,0 0.093,-0.004 0.224,-0.013 0.285,-0.02 0.529,-0.03 0.73,-0.03 0.695,0 1.2,0.081 1.514,0.24 0.375,0.189 0.636,0.491 0.786,0.906 0.076,0.215 0.114,0.446 0.114,0.691 0,0.521 -0.165,0.967 -0.495,1.334 -0.364,0.406 -0.968,0.608 -1.812,0.608 l -1.697,0 0,-0.233 c 0.169,0 0.289,-0.022 0.356,-0.067 0.093,-0.059 0.139,-0.175 0.139,-0.348 l 0,-2.3 c 0,-0.27 -0.061,-0.432 -0.182,-0.482 -0.07,-0.026 -0.175,-0.041 -0.313,-0.041 l 0,0 z m -4.21,0.506 0,2.249 c 0,0.244 0.068,0.389 0.205,0.44 0.077,0.029 0.184,0.043 0.324,0.043 l 0,0.233 -1.293,0 0,-0.233 0.031,0 c 0.139,0 0.238,-0.025 0.297,-0.073 0.074,-0.055 0.11,-0.156 0.11,-0.302 l 0,-2.731 c -0.113,-0.088 -0.256,-0.132 -0.428,-0.132 l 0,-0.231 1.1,0 2.18,2.536 0,-1.799 c 0,-0.269 -0.061,-0.426 -0.182,-0.468 -0.071,-0.024 -0.18,-0.038 -0.326,-0.038 l -0.052,0 0,-0.231 1.376,0 0,0.231 -0.052,0 c -0.139,0 -0.238,0.015 -0.297,0.041 -0.094,0.045 -0.141,0.132 -0.141,0.262 l 0,3.186 -0.294,0 -2.558,-2.983 z m -2.951,-0.506 0,-0.231 1.385,0 0,0.231 -0.039,0 c -0.173,0 -0.296,0.035 -0.371,0.103 -0.079,0.075 -0.119,0.206 -0.119,0.392 l 0,1.481 c 0,0.527 -0.133,0.926 -0.399,1.192 -0.256,0.258 -0.623,0.387 -1.101,0.387 -0.453,0 -0.817,-0.101 -1.09,-0.303 -0.321,-0.236 -0.482,-0.592 -0.482,-1.072 l 0,-1.775 c 0,-0.158 -0.027,-0.263 -0.081,-0.32 -0.054,-0.056 -0.151,-0.085 -0.291,-0.085 l -0.092,0 0,-0.231 1.671,0 0,0.231 -0.091,0 c -0.252,0 -0.378,0.135 -0.378,0.405 l 0,1.775 c 0,0.442 0.163,0.736 0.488,0.877 0.144,0.065 0.304,0.097 0.479,0.097 0.321,0 0.574,-0.092 0.758,-0.274 0.192,-0.191 0.288,-0.464 0.288,-0.819 l 0,-1.448 c 0,-0.282 -0.06,-0.466 -0.178,-0.549 -0.064,-0.043 -0.151,-0.064 -0.261,-0.064 l -0.096,0 z m -6.788,1.393 c 0,0.562 0.119,1.021 0.355,1.377 0.231,0.352 0.536,0.529 0.915,0.529 0.469,0 0.792,-0.255 0.97,-0.763 0.079,-0.236 0.119,-0.493 0.119,-0.775 0,-0.511 -0.106,-0.943 -0.32,-1.292 -0.226,-0.373 -0.532,-0.559 -0.918,-0.559 -0.462,0 -0.789,0.235 -0.98,0.703 -0.094,0.228 -0.141,0.487 -0.141,0.78 l 0,0 z m -0.797,0.287 c 0,-0.585 0.191,-1.071 0.575,-1.452 0.383,-0.382 0.873,-0.573 1.471,-0.573 0.561,0 1.02,0.177 1.374,0.527 0.355,0.352 0.532,0.806 0.532,1.366 0,0.422 -0.107,0.801 -0.32,1.135 -0.209,0.326 -0.493,0.563 -0.85,0.712 -0.251,0.106 -0.53,0.16 -0.838,0.16 -0.356,0 -0.681,-0.073 -0.972,-0.221 -0.323,-0.165 -0.57,-0.404 -0.741,-0.718 -0.155,-0.284 -0.231,-0.597 -0.231,-0.936 l 0,0 z m -2.758,-1.584 0,1.34 0.743,0 c 0.236,0 0.379,-0.056 0.425,-0.172 0.027,-0.061 0.039,-0.149 0.039,-0.263 l 0.215,0 0,1.185 -0.215,0 c 0,-0.283 -0.122,-0.425 -0.367,-0.425 l -0.84,0 0,0.96 c 0,0.268 0.045,0.426 0.133,0.477 0.049,0.027 0.124,0.04 0.224,0.04 l 0.101,0 0,0.233 -1.594,0 0,-0.233 0.085,0 c 0.115,0 0.197,-0.025 0.243,-0.074 0.047,-0.051 0.07,-0.14 0.07,-0.265 l 0,-2.41 c 0,-0.165 -0.018,-0.282 -0.054,-0.352 -0.05,-0.095 -0.143,-0.143 -0.276,-0.143 l -0.068,0 0,-0.225 2.696,0 0,0.839 -0.194,0 c -0.008,-0.174 -0.029,-0.295 -0.061,-0.361 -0.05,-0.101 -0.141,-0.151 -0.275,-0.151 l -1.03,0 z"
         
         
         style="fill:#405062;fill-rule:evenodd;stroke:none;stroke-width:1" />
      <path
         d="m 186.24942,386.96451 0,2.249 c 0,0.244 0.069,0.389 0.205,0.44 0.077,0.029 0.185,0.043 0.325,0.043 l 0,0.233 -1.294,0 0,-0.233 0.032,0 c 0.139,0 0.237,-0.025 0.297,-0.073 0.072,-0.055 0.109,-0.156 0.109,-0.302 l 0,-2.731 c -0.113,-0.088 -0.255,-0.132 -0.428,-0.132 l 0,-0.231 1.101,0 2.18,2.536 0,-1.799 c 0,-0.269 -0.061,-0.426 -0.183,-0.468 -0.071,-0.024 -0.179,-0.038 -0.325,-0.038 l -0.053,0 0,-0.231 1.377,0 0,0.231 -0.053,0 c -0.139,0 -0.237,0.015 -0.297,0.041 -0.094,0.045 -0.141,0.132 -0.141,0.262 l 0,3.186 -0.294,0 -2.558,-2.983 z m -4.973,0.887 c 0,0.562 0.118,1.021 0.354,1.377 0.231,0.352 0.537,0.529 0.916,0.529 0.469,0 0.792,-0.255 0.97,-0.763 0.079,-0.236 0.119,-0.493 0.119,-0.775 0,-0.511 -0.106,-0.943 -0.32,-1.292 -0.226,-0.373 -0.532,-0.559 -0.918,-0.559 -0.463,0 -0.789,0.235 -0.981,0.703 -0.093,0.228 -0.14,0.487 -0.14,0.78 l 0,0 z m -0.798,0.287 c 0,-0.585 0.192,-1.071 0.575,-1.452 0.382,-0.382 0.873,-0.573 1.471,-0.573 0.562,0 1.02,0.177 1.374,0.527 0.356,0.352 0.532,0.806 0.532,1.366 0,0.422 -0.106,0.801 -0.32,1.135 -0.209,0.326 -0.492,0.563 -0.85,0.712 -0.251,0.106 -0.529,0.16 -0.837,0.16 -0.356,0 -0.681,-0.073 -0.973,-0.221 -0.323,-0.165 -0.569,-0.404 -0.741,-0.718 -0.154,-0.284 -0.231,-0.597 -0.231,-0.936 l 0,0 z m -2.752,-1.68 0,-0.231 1.697,0 0,0.231 -0.088,0 c -0.271,0 -0.407,0.15 -0.407,0.448 l 0,2.358 c 0,0.16 0.033,0.273 0.1,0.336 0.065,0.064 0.171,0.096 0.317,0.096 l 0.078,0 0,0.233 -1.697,0 0,-0.233 0.076,0 c 0.259,0 0.388,-0.136 0.388,-0.409 l 0,-2.381 c 0,-0.161 -0.029,-0.276 -0.088,-0.344 -0.06,-0.068 -0.162,-0.104 -0.306,-0.104 l -0.07,0 z m -2.35,0.079 0,2.713 c 0,0.177 0.038,0.298 0.115,0.362 0.065,0.056 0.182,0.084 0.349,0.084 l 0.128,0 0,0.233 -1.922,0 0,-0.233 0.18,0 c 0.274,0 0.412,-0.148 0.412,-0.446 l 0,-2.713 -0.631,0 c -0.127,0 -0.219,0.009 -0.274,0.029 -0.091,0.031 -0.155,0.097 -0.193,0.198 -0.037,0.091 -0.073,0.25 -0.109,0.473 l -0.22,0 0.096,-1.112 0.173,0 c 0.048,0.05 0.083,0.078 0.102,0.084 0.034,0.012 0.086,0.018 0.154,0.018 l 2.541,0 c 0.105,0 0.19,-0.036 0.256,-0.102 l 0.172,0 0.096,1.112 -0.218,0 c -0.03,-0.183 -0.053,-0.305 -0.071,-0.366 -0.045,-0.153 -0.109,-0.249 -0.19,-0.287 -0.068,-0.032 -0.174,-0.047 -0.318,-0.047 l -0.628,0 z m -4.671,1.688 -0.491,-1.391 -0.448,1.391 0.939,0 z m 0.122,0.329 -1.168,0 -0.224,0.696 c -0.054,0.166 -0.057,0.283 -0.008,0.347 0.047,0.066 0.19,0.099 0.43,0.099 l 0.068,0 0,0.233 -1.416,0 0,-0.233 0.081,0 c 0.144,0 0.26,-0.053 0.347,-0.159 0.061,-0.078 0.119,-0.207 0.177,-0.387 l 0.913,-2.839 -0.058,-0.175 0.79,0 1.067,3.025 c 0.063,0.178 0.125,0.304 0.187,0.376 0.084,0.094 0.199,0.148 0.347,0.159 l 0,0.233 -1.736,0 0,-0.233 0.188,0 c 0.155,0 0.254,-0.037 0.294,-0.114 0.039,-0.073 0.029,-0.186 -0.027,-0.339 l -0.252,-0.689 z m -6.063,-2.096 0,2.779 c 0,0.199 0.027,0.325 0.082,0.376 0.055,0.052 0.183,0.077 0.382,0.077 0.544,0 0.944,-0.177 1.199,-0.532 0.208,-0.292 0.313,-0.656 0.313,-1.093 0,-0.51 -0.132,-0.914 -0.396,-1.209 -0.256,-0.284 -0.644,-0.426 -1.163,-0.426 -0.149,0 -0.289,0.009 -0.417,0.028 l 0,0 z m -1.233,0 0,-0.231 c 0.127,-0.008 0.252,-0.015 0.378,-0.021 l 0.258,-0.013 c 0.018,0 0.093,-0.004 0.224,-0.013 0.285,-0.02 0.529,-0.03 0.73,-0.03 0.695,0 1.2,0.081 1.514,0.24 0.375,0.189 0.636,0.491 0.786,0.906 0.076,0.215 0.114,0.446 0.114,0.691 0,0.521 -0.165,0.967 -0.495,1.334 -0.364,0.406 -0.968,0.608 -1.812,0.608 l -1.697,0 0,-0.233 c 0.169,0 0.289,-0.022 0.356,-0.067 0.093,-0.059 0.139,-0.175 0.139,-0.348 l 0,-2.3 c 0,-0.27 -0.061,-0.432 -0.182,-0.482 -0.07,-0.026 -0.175,-0.041 -0.313,-0.041 l 0,0 z m -4.21,0.506 0,2.249 c 0,0.244 0.068,0.389 0.205,0.44 0.077,0.029 0.184,0.043 0.324,0.043 l 0,0.233 -1.293,0 0,-0.233 0.031,0 c 0.139,0 0.238,-0.025 0.297,-0.073 0.074,-0.055 0.11,-0.156 0.11,-0.302 l 0,-2.731 c -0.113,-0.088 -0.256,-0.132 -0.428,-0.132 l 0,-0.231 1.1,0 2.181,2.536 0,-1.799 c 0,-0.269 -0.062,-0.426 -0.183,-0.468 -0.071,-0.024 -0.18,-0.038 -0.326,-0.038 l -0.052,0 0,-0.231 1.376,0 0,0.231 -0.052,0 c -0.139,0 -0.238,0.015 -0.297,0.041 -0.094,0.045 -0.141,0.132 -0.141,0.262 l 0,3.186 -0.294,0 -2.558,-2.983 z m -2.951,-0.506 0,-0.231 1.385,0 0,0.231 -0.039,0 c -0.173,0 -0.296,0.035 -0.371,0.103 -0.079,0.075 -0.119,0.206 -0.119,0.392 l 0,1.481 c 0,0.527 -0.133,0.926 -0.399,1.192 -0.256,0.258 -0.623,0.387 -1.101,0.387 -0.453,0 -0.817,-0.101 -1.09,-0.303 -0.321,-0.236 -0.482,-0.592 -0.482,-1.072 l 0,-1.775 c 0,-0.158 -0.027,-0.263 -0.081,-0.32 -0.054,-0.056 -0.151,-0.085 -0.291,-0.085 l -0.092,0 0,-0.231 1.671,0 0,0.231 -0.091,0 c -0.252,0 -0.378,0.135 -0.378,0.405 l 0,1.775 c 0,0.442 0.163,0.736 0.488,0.877 0.144,0.065 0.304,0.097 0.479,0.097 0.321,0 0.574,-0.092 0.758,-0.274 0.192,-0.191 0.288,-0.464 0.288,-0.819 l 0,-1.448 c 0,-0.282 -0.06,-0.466 -0.178,-0.549 -0.064,-0.043 -0.151,-0.064 -0.261,-0.064 l -0.096,0 z m -6.788,1.393 c 0,0.562 0.119,1.021 0.355,1.377 0.231,0.352 0.536,0.529 0.915,0.529 0.469,0 0.792,-0.255 0.97,-0.763 0.079,-0.236 0.119,-0.493 0.119,-0.775 0,-0.511 -0.106,-0.943 -0.32,-1.292 -0.226,-0.373 -0.532,-0.559 -0.918,-0.559 -0.462,0 -0.789,0.235 -0.98,0.703 -0.094,0.228 -0.141,0.487 -0.141,0.78 l 0,0 z m -0.797,0.287 c 0,-0.585 0.191,-1.071 0.575,-1.452 0.383,-0.382 0.873,-0.573 1.471,-0.573 0.561,0 1.02,0.177 1.374,0.527 0.355,0.352 0.532,0.806 0.532,1.366 0,0.422 -0.107,0.801 -0.32,1.135 -0.209,0.326 -0.493,0.563 -0.85,0.712 -0.251,0.106 -0.53,0.16 -0.838,0.16 -0.356,0 -0.681,-0.073 -0.972,-0.221 -0.323,-0.165 -0.57,-0.404 -0.741,-0.718 -0.155,-0.284 -0.231,-0.597 -0.231,-0.936 l 0,0 z m -2.758,-1.584 0,1.34 0.743,0 c 0.236,0 0.379,-0.056 0.425,-0.172 0.027,-0.061 0.039,-0.149 0.039,-0.263 l 0.215,0 0,1.185 -0.215,0 c 0,-0.283 -0.122,-0.425 -0.367,-0.425 l -0.84,0 0,0.96 c 0,0.268 0.045,0.426 0.133,0.477 0.049,0.027 0.124,0.04 0.224,0.04 l 0.101,0 0,0.233 -1.594,0 0,-0.233 0.085,0 c 0.115,0 0.197,-0.025 0.243,-0.074 0.047,-0.051 0.07,-0.14 0.07,-0.265 l 0,-2.41 c 0,-0.165 -0.018,-0.282 -0.054,-0.352 -0.05,-0.095 -0.143,-0.143 -0.276,-0.143 l -0.068,0 0,-0.225 2.696,0 0,0.839 -0.194,0 c -0.008,-0.174 -0.029,-0.295 -0.061,-0.361 -0.05,-0.101 -0.141,-0.151 -0.275,-0.151 l -1.03,0 z"
         
         
         style="fill:#405062;fill-rule:evenodd;stroke:none;stroke-width:1" />
      <path
         d="m 218.46442,380.75931 c -0.029,0 -0.057,-0.009 -0.057,-0.057 l 0,-0.172 c 0,-1.226 0,-1.52 0.019,-1.777 0.019,-0.285 0.085,-0.399 0.313,-0.437 0.096,-0.02 0.172,-0.029 0.238,-0.029 0.105,0 0.152,-0.028 0.152,-0.085 0,-0.058 -0.057,-0.076 -0.171,-0.076 -0.332,0 -0.912,0.018 -1.112,0.018 -0.228,0 -0.78,-0.018 -1.226,-0.018 -0.115,0 -0.181,0.018 -0.181,0.076 0,0.057 0.057,0.085 0.143,0.085 0.123,0 0.266,0.009 0.332,0.029 0.267,0.076 0.343,0.161 0.362,0.437 0.008,0.257 0.008,0.485 0.008,1.711 l 0,1.427 c 0,0.741 0,1.378 -0.037,1.72 -0.028,0.238 -0.076,0.389 -0.247,0.428 -0.076,0.019 -0.171,0.029 -0.295,0.029 -0.104,0 -0.133,0.047 -0.133,0.085 0,0.057 0.058,0.087 0.162,0.087 0.332,0 0.884,-0.028 1.074,-0.028 0.238,0 0.818,0.028 1.35999,0.028 0.104,0 0.17,-0.03 0.17,-0.087 0,-0.038 -0.037,-0.085 -0.133,-0.085 -0.12299,0 -0.31299,-0.01 -0.42699,-0.029 -0.248,-0.039 -0.296,-0.19 -0.323,-0.419 -0.039,-0.351 -0.048,-0.969 -0.048,-1.711 l 0,-0.618 c 0,-0.037 0.028,-0.047 0.057,-0.047 l 3.15599,0 c 0.019,0 0.048,0.019 0.048,0.047 l 0,0.618 c 0,0.742 0,1.36 -0.039,1.702 -0.028,0.238 -0.076,0.389 -0.247,0.428 -0.076,0.019 -0.171,0.029 -0.304,0.029 -0.095,0 -0.133,0.047 -0.133,0.085 0,0.057 0.067,0.087 0.181,0.087 0.323,0 0.912,-0.028 1.103,-0.028 0.228,0 0.779,0.028 1.321,0.028 0.105,0 0.171,-0.03 0.171,-0.087 0,-0.038 -0.047,-0.085 -0.133,-0.085 -0.133,0 -0.314,-0.01 -0.428,-0.029 -0.256,-0.039 -0.304,-0.19 -0.333,-0.419 -0.038,-0.351 -0.038,-0.988 -0.038,-1.729 l 0,-1.427 c 0,-1.226 0,-1.454 0.019,-1.711 0.019,-0.285 0.086,-0.399 0.305,-0.437 0.104,-0.02 0.18,-0.029 0.247,-0.029 0.095,0 0.152,-0.028 0.152,-0.085 0,-0.058 -0.057,-0.076 -0.181,-0.076 -0.323,0 -0.874,0.018 -1.074,0.018 -0.219,0 -0.808,-0.018 -1.255,-0.018 -0.124,0 -0.18,0.018 -0.18,0.076 0,0.057 0.047,0.085 0.142,0.085 0.114,0 0.257,0.009 0.323,0.029 0.266,0.076 0.342,0.161 0.362,0.437 0.01,0.257 0.019,0.551 0.019,1.777 l 0,0.172 c 0,0.048 -0.029,0.057 -0.048,0.057 l -3.15599,0 z m -6.085,1.132 c 0,0.741 0,1.378 -0.037,1.72 -0.029,0.238 -0.077,0.389 -0.248,0.428 -0.066,0.019 -0.171,0.029 -0.294,0.029 -0.105,0 -0.134,0.047 -0.134,0.085 0,0.057 0.058,0.087 0.162,0.087 0.333,0 0.903,-0.028 1.093,-0.028 0.238,0 0.799,0.028 1.351,0.028 0.095,0 0.161,-0.03 0.161,-0.087 0,-0.038 -0.038,-0.085 -0.133,-0.085 -0.124,0 -0.314,-0.01 -0.428,-0.029 -0.247,-0.039 -0.294,-0.19 -0.323,-0.419 -0.038,-0.351 -0.048,-0.988 -0.048,-1.729 l 0,-3.271 1.055,0.019 c 0.752,0.01 0.97,0.257 0.989,0.466 l 0.01,0.086 c 0.01,0.123 0.029,0.161 0.095,0.161 0.048,0 0.066,-0.048 0.076,-0.133 0,-0.209 0.019,-0.809 0.019,-0.979 0,-0.124 -0.01,-0.171 -0.067,-0.171 -0.028,0 -0.094,0.019 -0.228,0.037 -0.123,0.02 -0.304,0.038 -0.57,0.038 l -3.394,0 c -0.276,0 -0.59,-0.009 -0.837,-0.038 -0.209,-0.028 -0.295,-0.094 -0.361,-0.094 -0.048,0 -0.076,0.047 -0.095,0.152 -0.019,0.066 -0.181,0.846 -0.181,0.979 0,0.086 0.019,0.133 0.077,0.133 0.056,0 0.075,-0.038 0.095,-0.105 0.018,-0.056 0.056,-0.161 0.142,-0.275 0.123,-0.181 0.323,-0.238 0.809,-0.247 l 1.244,-0.029 0,3.271 z m -6.207,-3.205 c 0,-0.066 0.019,-0.095 0.075,-0.114 0.086,-0.018 0.286,-0.028 0.495,-0.028 0.495,0 1.274,0.295 1.274,1.435 0,0.666 -0.285,1.018 -0.542,1.198 -0.143,0.105 -0.257,0.134 -0.59,0.134 -0.209,0 -0.456,-0.02 -0.637,-0.077 -0.056,-0.028 -0.075,-0.057 -0.075,-0.142 l 0,-2.406 z m -1.065,3.205 c 0,0.741 0,1.378 -0.038,1.72 -0.029,0.238 -0.076,0.389 -0.247,0.428 -0.076,0.019 -0.172,0.029 -0.295,0.029 -0.105,0 -0.133,0.047 -0.133,0.085 0,0.057 0.056,0.087 0.161,0.087 0.333,0 0.865,-0.028 1.027,-0.028 0.124,0 0.818,0.028 1.302,0.028 0.105,0 0.172,-0.03 0.172,-0.087 0,-0.038 -0.039,-0.085 -0.105,-0.085 -0.105,0 -0.285,-0.01 -0.408,-0.029 -0.257,-0.039 -0.296,-0.19 -0.324,-0.428 -0.038,-0.342 -0.047,-0.97 -0.047,-1.72 l 0,-0.114 c 0,-0.048 0.028,-0.067 0.066,-0.067 l 0.751,0.019 c 0.057,0 0.104,0.009 0.152,0.057 0.105,0.123 0.456,0.665 0.789,1.103 0.466,0.627 0.779,1.007 1.141,1.188 0.219,0.113 0.447,0.163 0.913,0.163 l 0.798,0 c 0.105,0 0.162,-0.019 0.162,-0.087 0,-0.038 -0.038,-0.085 -0.104,-0.085 -0.067,0 -0.114,0 -0.2,-0.019 -0.133,-0.03 -0.428,-0.067 -0.894,-0.533 -0.504,-0.504 -1.093,-1.236 -1.835,-2.148 0.818,-0.657 1.16,-1.189 1.16,-1.788 0,-0.542 -0.352,-0.951 -0.589,-1.112 -0.447,-0.295 -1.056,-0.342 -1.588,-0.342 -0.257,0 -1.017,0.018 -1.302,0.018 -0.172,0 -0.704,-0.018 -1.142,-0.018 -0.123,0 -0.189,0.018 -0.189,0.076 0,0.057 0.056,0.085 0.142,0.085 0.124,0 0.267,0.009 0.333,0.029 0.266,0.076 0.342,0.161 0.362,0.437 0.009,0.257 0.009,0.485 0.009,1.711 l 0,1.427 z m -4.725,2.015 c -1.578,0 -2.529,-1.312 -2.529,-2.976 0,-1.996 1.093,-2.491 2.025,-2.491 1.35,0 2.424,1.103 2.424,2.89 0,2.301 -1.331,2.577 -1.92,2.577 l 0,0 z m -0.342,0.438 c 2.158,0 3.508,-1.455 3.508,-3.309 0,-1.855 -1.312,-3.023 -3.423,-3.023 -2.538,0 -3.508,1.787 -3.508,3.165 0,1.436 0.989,3.167 3.423,3.167 l 0,0 z m -10.591,-0.295 c 0.076,0.21 0.123,0.295 0.228,0.295 0.124,0 0.171,-0.095 0.324,-0.429 0.341,-0.741 1.464,-3.603 1.606,-3.945 l 0.019,0 1.702,3.984 c 0.123,0.295 0.18,0.39 0.294,0.39 0.124,0 0.172,-0.095 0.267,-0.381 0.409,-1.208 1.264,-3.774 1.654,-4.792 0.171,-0.466 0.267,-0.77 0.466,-0.846 0.095,-0.029 0.209,-0.038 0.295,-0.038 0.075,0 0.113,-0.038 0.113,-0.095 0,-0.048 -0.057,-0.066 -0.152,-0.066 -0.275,0 -0.636,0.018 -0.694,0.018 -0.076,0 -0.456,-0.018 -0.893,-0.018 -0.134,0 -0.2,0.018 -0.2,0.076 0,0.047 0.066,0.085 0.142,0.085 0.334,0 0.409,0.095 0.409,0.229 0,0.113 -0.028,0.275 -0.085,0.465 -0.294,0.941 -0.931,3.071 -1.093,3.537 l -0.029,0 -1.673,-3.993 c -0.104,-0.257 -0.181,-0.381 -0.276,-0.381 -0.076,0 -0.161,0.067 -0.247,0.295 l -1.598,4.132 -0.027,0 c -0.124,-0.371 -0.884,-2.818 -1.027,-3.35 -0.105,-0.372 -0.181,-0.639 -0.181,-0.744 0,-0.085 0.01,-0.133 0.086,-0.161 0.066,-0.02 0.142,-0.029 0.209,-0.029 0.085,0 0.152,-0.028 0.152,-0.085 0,-0.058 -0.057,-0.076 -0.181,-0.076 -0.485,0 -0.893,0.018 -0.969,0.018 -0.076,0 -0.543,-0.018 -0.97,-0.018 -0.125,0 -0.192,0.018 -0.192,0.076 0,0.057 0.047,0.085 0.133,0.085 0.078,0 0.24,0.009 0.325,0.067 0.124,0.076 0.19,0.266 0.295,0.561 l 1.768,5.134 z m -6.474,-2.158 c 0,0.741 0,1.378 -0.039,1.72 -0.028,0.238 -0.075,0.389 -0.247,0.428 -0.075,0.019 -0.17,0.029 -0.294,0.029 -0.105,0 -0.133,0.047 -0.133,0.085 0,0.057 0.057,0.087 0.161,0.087 0.172,0 0.381,-0.009 0.58,-0.019 0.2,0 0.38,-0.011 0.475,-0.011 0.248,0 0.561,0.011 0.97,0.021 0.409,0.018 0.913,0.028 1.541,0.028 0.313,0 0.389,0 0.446,-0.21 0.048,-0.163 0.114,-0.714 0.114,-0.894 0,-0.086 -0.009,-0.19 -0.076,-0.19 -0.056,0 -0.076,0.037 -0.095,0.123 -0.056,0.333 -0.152,0.504 -0.361,0.599 -0.219,0.095 -0.57,0.105 -0.79,0.105 -0.854,0 -1.111,-0.123 -1.13,-0.676 -0.01,-0.237 0,-0.922 0,-1.197 l 0,-0.646 c 0,-0.048 0.009,-0.086 0.047,-0.086 0.209,0 1.16,0.019 1.312,0.038 0.314,0.029 0.418,0.152 0.466,0.314 0.019,0.104 0.019,0.208 0.028,0.294 0,0.038 0.019,0.067 0.076,0.067 0.076,0 0.086,-0.114 0.086,-0.181 0,-0.057 0.019,-0.381 0.038,-0.542 0.048,-0.408 0.067,-0.542 0.067,-0.589 0,-0.048 -0.029,-0.086 -0.067,-0.086 -0.038,0 -0.067,0.048 -0.133,0.105 -0.076,0.085 -0.199,0.104 -0.399,0.123 -0.191,0.02 -1.274,0.02 -1.464,0.02 -0.048,0 -0.057,-0.039 -0.057,-0.086 l 0,-1.996 c 0,-0.048 0.019,-0.077 0.057,-0.077 0.171,0 1.169,0.019 1.312,0.038 0.417,0.039 0.484,0.153 0.551,0.295 0.048,0.095 0.057,0.238 0.057,0.295 0,0.067 0.009,0.104 0.067,0.104 0.066,0 0.085,-0.094 0.095,-0.132 0.019,-0.096 0.037,-0.447 0.047,-0.533 0.019,-0.371 0.066,-0.466 0.066,-0.523 0,-0.038 -0.009,-0.076 -0.057,-0.076 -0.037,0 -0.085,0.029 -0.133,0.038 -0.066,0.009 -0.199,0.038 -0.351,0.047 -0.162,0.01 -2.016,0 -2.281,0 -0.239,0 -0.771,-0.018 -1.208,-0.018 -0.124,0 -0.191,0.018 -0.191,0.076 0,0.057 0.058,0.085 0.144,0.085 0.123,0 0.265,0.009 0.332,0.029 0.267,0.076 0.342,0.161 0.362,0.437 0.009,0.257 0.009,0.485 0.009,1.711 l 0,1.427 z m -4.126,-1.427 c 0,-1.226 0,-1.454 0.019,-1.711 0.018,-0.285 0.085,-0.399 0.314,-0.437 0.095,-0.02 0.228,-0.029 0.323,-0.029 0.104,0 0.152,-0.028 0.152,-0.085 0,-0.058 -0.057,-0.076 -0.181,-0.076 -0.323,0 -1.007,0.018 -1.207,0.018 -0.228,0 -0.761,-0.018 -1.15,-0.018 -0.124,0 -0.181,0.018 -0.181,0.076 0,0.057 0.047,0.085 0.143,0.085 0.104,0 0.208,0.009 0.275,0.029 0.266,0.076 0.342,0.161 0.361,0.437 0.01,0.257 0.01,0.485 0.01,1.711 l 0,1.427 c 0,0.741 0,1.378 -0.039,1.72 -0.027,0.238 -0.075,0.389 -0.247,0.428 -0.076,0.019 -0.17,0.029 -0.294,0.029 -0.105,0 -0.133,0.047 -0.133,0.085 0,0.057 0.057,0.087 0.162,0.087 0.17,0 0.38,-0.009 0.579,-0.019 0.2,0 0.38,-0.011 0.476,-0.011 0.342,0 0.694,0.011 1.112,0.021 0.419,0.018 0.903,0.028 1.502,0.028 0.437,0 0.476,-0.038 0.533,-0.22 0.066,-0.238 0.123,-0.837 0.123,-0.932 0,-0.095 -0.019,-0.181 -0.076,-0.181 -0.066,0 -0.086,0.048 -0.095,0.124 -0.019,0.152 -0.104,0.38 -0.209,0.485 -0.209,0.219 -0.533,0.229 -0.979,0.229 -0.647,0 -0.97,-0.048 -1.112,-0.172 -0.181,-0.152 -0.181,-0.666 -0.181,-1.701 l 0,-1.427 z m -6.027,1.427 c 0,0.741 0,1.378 -0.039,1.72 -0.028,0.238 -0.076,0.389 -0.247,0.428 -0.066,0.019 -0.171,0.029 -0.294,0.029 -0.105,0 -0.134,0.047 -0.134,0.085 0,0.057 0.057,0.087 0.162,0.087 0.333,0 0.903,-0.028 1.093,-0.028 0.238,0 0.799,0.028 1.35,0.028 0.095,0 0.162,-0.03 0.162,-0.087 0,-0.038 -0.038,-0.085 -0.134,-0.085 -0.123,0 -0.313,-0.01 -0.427,-0.029 -0.247,-0.039 -0.294,-0.19 -0.324,-0.419 -0.037,-0.351 -0.047,-0.988 -0.047,-1.729 l 0,-3.271 1.055,0.019 c 0.751,0.01 0.971,0.257 0.989,0.466 l 0.01,0.086 c 0.009,0.123 0.028,0.161 0.095,0.161 0.047,0 0.067,-0.048 0.076,-0.133 0,-0.209 0.019,-0.809 0.019,-0.979 0,-0.124 -0.009,-0.171 -0.067,-0.171 -0.028,0 -0.095,0.019 -0.228,0.037 -0.123,0.02 -0.304,0.038 -0.57,0.038 l -3.394,0 c -0.276,0 -0.589,-0.009 -0.837,-0.038 -0.209,-0.028 -0.295,-0.094 -0.361,-0.094 -0.048,0 -0.076,0.047 -0.095,0.152 -0.019,0.066 -0.181,0.846 -0.181,0.979 0,0.086 0.02,0.133 0.076,0.133 0.057,0 0.076,-0.038 0.095,-0.105 0.019,-0.056 0.057,-0.161 0.143,-0.275 0.124,-0.181 0.323,-0.238 0.808,-0.247 l 1.246,-0.029 0,3.271 z m -6.018,0 c 0,0.741 0,1.378 -0.038,1.72 -0.029,0.238 -0.076,0.389 -0.247,0.428 -0.067,0.019 -0.172,0.029 -0.295,0.029 -0.105,0 -0.133,0.047 -0.133,0.085 0,0.057 0.056,0.087 0.161,0.087 0.333,0 0.903,-0.028 1.093,-0.028 0.238,0 0.799,0.028 1.351,0.028 0.094,0 0.161,-0.03 0.161,-0.087 0,-0.038 -0.038,-0.085 -0.133,-0.085 -0.124,0 -0.314,-0.01 -0.428,-0.029 -0.247,-0.039 -0.294,-0.19 -0.323,-0.419 -0.038,-0.351 -0.047,-0.988 -0.047,-1.729 l 0,-3.271 1.054,0.019 c 0.752,0.01 0.971,0.257 0.989,0.466 l 0.01,0.086 c 0.009,0.123 0.028,0.161 0.095,0.161 0.048,0 0.067,-0.048 0.076,-0.133 0,-0.209 0.019,-0.809 0.019,-0.979 0,-0.124 -0.009,-0.171 -0.066,-0.171 -0.029,0 -0.096,0.019 -0.228,0.037 -0.125,0.02 -0.305,0.038 -0.571,0.038 l -3.394,0 c -0.276,0 -0.589,-0.009 -0.837,-0.038 -0.209,-0.028 -0.295,-0.094 -0.361,-0.094 -0.047,0 -0.076,0.047 -0.095,0.152 -0.019,0.066 -0.18,0.846 -0.18,0.979 0,0.086 0.018,0.133 0.075,0.133 0.058,0 0.076,-0.038 0.095,-0.105 0.02,-0.056 0.058,-0.161 0.143,-0.275 0.124,-0.181 0.323,-0.238 0.808,-0.247 l 1.246,-0.029 0,3.271 z m -8.699,-0.238 c 0,1.169 0.333,1.768 0.76,2.139 0.609,0.534 1.474,0.552 1.911,0.552 0.542,0 1.179,-0.085 1.768,-0.58 0.704,-0.581 0.799,-1.531 0.799,-2.435 l 0,-0.865 c 0,-1.226 0.01,-1.454 0.019,-1.711 0.019,-0.285 0.076,-0.399 0.304,-0.437 0.105,-0.02 0.153,-0.029 0.247,-0.029 0.096,0 0.143,-0.028 0.143,-0.085 0,-0.058 -0.057,-0.076 -0.171,-0.076 -0.323,0 -0.884,0.018 -0.98,0.018 -0.009,0 -0.569,-0.018 -0.997,-0.018 -0.115,0 -0.172,0.018 -0.172,0.076 0,0.057 0.048,0.085 0.143,0.085 0.095,0 0.238,0.009 0.304,0.029 0.266,0.076 0.333,0.161 0.352,0.437 0.009,0.257 0.019,0.485 0.019,1.711 l 0,1.018 c 0,0.826 -0.019,1.53 -0.485,1.967 -0.333,0.324 -0.76,0.428 -1.122,0.428 -0.285,0 -0.684,-0.028 -1.055,-0.323 -0.408,-0.323 -0.637,-0.779 -0.637,-1.958 l 0,-1.132 c 0,-1.226 0,-1.454 0.019,-1.711 0.019,-0.285 0.086,-0.399 0.304,-0.437 0.105,-0.02 0.153,-0.029 0.248,-0.029 0.085,0 0.133,-0.028 0.133,-0.085 0,-0.058 -0.057,-0.076 -0.181,-0.076 -0.304,0 -0.866,0.018 -1.074,0.018 -0.247,0 -0.809,-0.018 -1.255,-0.018 -0.123,0 -0.181,0.018 -0.181,0.076 0,0.057 0.048,0.085 0.143,0.085 0.114,0 0.256,0.009 0.323,0.029 0.266,0.076 0.343,0.152 0.361,0.437 0.019,0.257 0.01,0.485 0.01,1.711 l 0,1.189 z m -6.703,-0.894 c -0.028,0 -0.057,-0.009 -0.057,-0.057 l 0,-0.172 c 0,-1.226 0,-1.52 0.019,-1.777 0.019,-0.285 0.086,-0.399 0.314,-0.437 0.095,-0.02 0.172,-0.029 0.238,-0.029 0.105,0 0.152,-0.028 0.152,-0.085 0,-0.058 -0.057,-0.076 -0.171,-0.076 -0.333,0 -0.913,0.018 -1.112,0.018 -0.229,0 -0.78,-0.018 -1.227,-0.018 -0.114,0 -0.18,0.018 -0.18,0.076 0,0.057 0.057,0.085 0.142,0.085 0.124,0 0.267,0.009 0.333,0.029 0.266,0.076 0.342,0.161 0.361,0.437 0.01,0.257 0.01,0.485 0.01,1.711 l 0,1.427 c 0,0.741 0,1.378 -0.039,1.72 -0.028,0.238 -0.076,0.389 -0.247,0.428 -0.076,0.019 -0.17,0.029 -0.294,0.029 -0.105,0 -0.133,0.047 -0.133,0.085 0,0.057 0.057,0.087 0.161,0.087 0.333,0 0.884,-0.028 1.074,-0.028 0.238,0 0.818,0.028 1.36,0.028 0.105,0 0.171,-0.03 0.171,-0.087 0,-0.038 -0.038,-0.085 -0.133,-0.085 -0.123,0 -0.314,-0.01 -0.427,-0.029 -0.248,-0.039 -0.295,-0.19 -0.324,-0.419 -0.038,-0.351 -0.048,-0.969 -0.048,-1.711 l 0,-0.618 c 0,-0.037 0.029,-0.047 0.057,-0.047 l 3.157,0 c 0.019,0 0.047,0.019 0.047,0.047 l 0,0.618 c 0,0.742 0,1.36 -0.038,1.702 -0.029,0.238 -0.076,0.389 -0.247,0.428 -0.076,0.019 -0.171,0.029 -0.304,0.029 -0.095,0 -0.133,0.047 -0.133,0.085 0,0.057 0.066,0.087 0.18,0.087 0.324,0 0.913,-0.028 1.103,-0.028 0.228,0 0.779,0.028 1.322,0.028 0.104,0 0.171,-0.03 0.171,-0.087 0,-0.038 -0.048,-0.085 -0.133,-0.085 -0.133,0 -0.314,-0.01 -0.428,-0.029 -0.256,-0.039 -0.304,-0.19 -0.333,-0.419 -0.038,-0.351 -0.038,-0.988 -0.038,-1.729 l 0,-1.427 c 0,-1.226 0,-1.454 0.019,-1.711 0.019,-0.285 0.086,-0.399 0.304,-0.437 0.105,-0.02 0.181,-0.029 0.248,-0.029 0.095,0 0.152,-0.028 0.152,-0.085 0,-0.058 -0.057,-0.076 -0.181,-0.076 -0.324,0 -0.875,0.018 -1.075,0.018 -0.218,0 -0.807,-0.018 -1.254,-0.018 -0.124,0 -0.181,0.018 -0.181,0.076 0,0.057 0.048,0.085 0.143,0.085 0.114,0 0.257,0.009 0.323,0.029 0.266,0.076 0.342,0.161 0.361,0.437 0.01,0.257 0.019,0.551 0.019,1.777 l 0,0.172 c 0,0.048 -0.028,0.057 -0.047,0.057 l -3.157,0 z m -5.219,3.585 c 0.447,0 0.998,-0.047 1.398,-0.334 0.608,-0.427 0.836,-0.912 0.836,-1.511 0,-0.733 -0.342,-1.35 -1.445,-1.959 l -0.342,-0.19 c -0.751,-0.418 -0.884,-0.703 -0.884,-1.064 0,-0.552 0.542,-0.865 1.141,-0.865 0.542,0 0.808,0.228 0.931,0.379 0.181,0.21 0.219,0.456 0.219,0.533 0,0.095 0.028,0.143 0.086,0.143 0.066,0 0.104,-0.086 0.104,-0.257 0,-0.637 0.029,-0.865 0.029,-0.97 0,-0.057 -0.038,-0.085 -0.114,-0.105 -0.219,-0.056 -0.647,-0.132 -1.189,-0.132 -1.159,0 -2.11,0.637 -2.11,1.626 0,0.712 0.323,1.254 1.312,1.834 l 0.485,0.285 c 0.741,0.437 0.827,0.789 0.827,1.141 0,0.57 -0.438,1.026 -1.16,1.026 -0.523,0 -1.15,-0.199 -1.331,-0.797 -0.048,-0.143 -0.076,-0.315 -0.076,-0.419 0,-0.057 -0.01,-0.134 -0.086,-0.134 -0.066,0 -0.105,0.086 -0.105,0.21 -0.009,0.133 -0.047,0.637 -0.047,1.075 0,0.18 0.028,0.218 0.162,0.275 0.361,0.163 0.875,0.21 1.359,0.21 l 0,0 z"
         
         
         style="fill:#405062;fill-rule:evenodd;stroke:none;stroke-width:1" />
      <path
         d="m 218.46442,380.75931 c -0.029,0 -0.057,-0.009 -0.057,-0.057 l 0,-0.172 c 0,-1.226 0,-1.52 0.019,-1.777 0.019,-0.285 0.085,-0.399 0.313,-0.437 0.096,-0.02 0.172,-0.029 0.238,-0.029 0.105,0 0.152,-0.028 0.152,-0.085 0,-0.058 -0.057,-0.076 -0.171,-0.076 -0.332,0 -0.912,0.018 -1.112,0.018 -0.228,0 -0.78,-0.018 -1.226,-0.018 -0.115,0 -0.181,0.018 -0.181,0.076 0,0.057 0.057,0.085 0.143,0.085 0.123,0 0.266,0.009 0.332,0.029 0.267,0.076 0.343,0.161 0.362,0.437 0.008,0.257 0.008,0.485 0.008,1.711 l 0,1.427 c 0,0.741 0,1.378 -0.037,1.72 -0.028,0.238 -0.076,0.389 -0.247,0.428 -0.076,0.019 -0.171,0.029 -0.295,0.029 -0.104,0 -0.133,0.047 -0.133,0.085 0,0.057 0.058,0.087 0.162,0.087 0.332,0 0.884,-0.028 1.074,-0.028 0.238,0 0.818,0.028 1.35999,0.028 0.104,0 0.17,-0.03 0.17,-0.087 0,-0.038 -0.037,-0.085 -0.133,-0.085 -0.12299,0 -0.31299,-0.01 -0.42699,-0.029 -0.248,-0.039 -0.296,-0.19 -0.323,-0.419 -0.039,-0.351 -0.048,-0.969 -0.048,-1.711 l 0,-0.618 c 0,-0.037 0.028,-0.047 0.057,-0.047 l 3.15599,0 c 0.019,0 0.048,0.019 0.048,0.047 l 0,0.618 c 0,0.742 0,1.36 -0.039,1.702 -0.028,0.238 -0.075,0.389 -0.247,0.428 -0.076,0.019 -0.171,0.029 -0.304,0.029 -0.095,0 -0.133,0.047 -0.133,0.085 0,0.057 0.067,0.087 0.181,0.087 0.323,0 0.912,-0.028 1.103,-0.028 0.228,0 0.779,0.028 1.321,0.028 0.105,0 0.171,-0.03 0.171,-0.087 0,-0.038 -0.047,-0.085 -0.133,-0.085 -0.133,0 -0.314,-0.01 -0.428,-0.029 -0.256,-0.039 -0.304,-0.19 -0.333,-0.419 -0.038,-0.351 -0.038,-0.988 -0.038,-1.729 l 0,-1.427 c 0,-1.226 0,-1.454 0.019,-1.711 0.019,-0.285 0.086,-0.399 0.305,-0.437 0.104,-0.02 0.18,-0.029 0.247,-0.029 0.095,0 0.152,-0.028 0.152,-0.085 0,-0.058 -0.057,-0.076 -0.181,-0.076 -0.323,0 -0.874,0.018 -1.074,0.018 -0.219,0 -0.808,-0.018 -1.255,-0.018 -0.124,0 -0.18,0.018 -0.18,0.076 0,0.057 0.047,0.085 0.142,0.085 0.114,0 0.257,0.009 0.323,0.029 0.267,0.076 0.342,0.161 0.362,0.437 0.01,0.257 0.019,0.551 0.019,1.777 l 0,0.172 c 0,0.048 -0.029,0.057 -0.048,0.057 l -3.15599,0 z m -6.085,1.132 c 0,0.741 0,1.378 -0.037,1.72 -0.029,0.238 -0.077,0.389 -0.248,0.428 -0.066,0.019 -0.171,0.029 -0.294,0.029 -0.105,0 -0.134,0.047 -0.134,0.085 0,0.057 0.058,0.087 0.162,0.087 0.333,0 0.903,-0.028 1.093,-0.028 0.238,0 0.799,0.028 1.351,0.028 0.095,0 0.161,-0.03 0.161,-0.087 0,-0.038 -0.038,-0.085 -0.133,-0.085 -0.124,0 -0.314,-0.01 -0.428,-0.029 -0.247,-0.039 -0.294,-0.19 -0.323,-0.419 -0.038,-0.351 -0.048,-0.988 -0.048,-1.729 l 0,-3.271 1.055,0.019 c 0.752,0.01 0.97,0.257 0.989,0.466 l 0.01,0.086 c 0.01,0.123 0.029,0.161 0.095,0.161 0.048,0 0.066,-0.048 0.076,-0.133 0,-0.209 0.019,-0.809 0.019,-0.979 0,-0.124 -0.01,-0.171 -0.067,-0.171 -0.028,0 -0.094,0.019 -0.228,0.037 -0.123,0.02 -0.304,0.038 -0.57,0.038 l -3.394,0 c -0.276,0 -0.59,-0.009 -0.837,-0.038 -0.209,-0.028 -0.295,-0.094 -0.361,-0.094 -0.048,0 -0.076,0.047 -0.095,0.152 -0.019,0.066 -0.181,0.846 -0.181,0.979 0,0.086 0.019,0.133 0.077,0.133 0.056,0 0.075,-0.038 0.095,-0.105 0.018,-0.056 0.056,-0.161 0.142,-0.275 0.123,-0.181 0.323,-0.238 0.809,-0.247 l 1.244,-0.029 0,3.271 z m -6.207,-3.205 c 0,-0.066 0.019,-0.095 0.075,-0.114 0.086,-0.018 0.286,-0.028 0.495,-0.028 0.495,0 1.274,0.295 1.274,1.435 0,0.666 -0.285,1.018 -0.542,1.198 -0.143,0.105 -0.257,0.134 -0.59,0.134 -0.209,0 -0.456,-0.02 -0.637,-0.077 -0.056,-0.028 -0.075,-0.057 -0.075,-0.142 l 0,-2.406 z m -1.065,3.205 c 0,0.741 0,1.378 -0.038,1.72 -0.029,0.238 -0.076,0.389 -0.247,0.428 -0.076,0.019 -0.172,0.029 -0.295,0.029 -0.105,0 -0.133,0.047 -0.133,0.085 0,0.057 0.056,0.087 0.161,0.087 0.333,0 0.865,-0.028 1.027,-0.028 0.124,0 0.818,0.028 1.302,0.028 0.105,0 0.172,-0.03 0.172,-0.087 0,-0.038 -0.039,-0.085 -0.105,-0.085 -0.105,0 -0.285,-0.01 -0.408,-0.029 -0.257,-0.039 -0.296,-0.19 -0.324,-0.428 -0.038,-0.342 -0.047,-0.97 -0.047,-1.72 l 0,-0.114 c 0,-0.048 0.028,-0.067 0.066,-0.067 l 0.751,0.019 c 0.057,0 0.104,0.009 0.152,0.057 0.105,0.123 0.456,0.665 0.789,1.103 0.466,0.627 0.779,1.007 1.141,1.188 0.219,0.113 0.447,0.163 0.913,0.163 l 0.798,0 c 0.105,0 0.162,-0.019 0.162,-0.087 0,-0.038 -0.038,-0.085 -0.104,-0.085 -0.067,0 -0.114,0 -0.2,-0.019 -0.133,-0.03 -0.428,-0.067 -0.894,-0.533 -0.504,-0.504 -1.093,-1.236 -1.835,-2.148 0.818,-0.657 1.16,-1.189 1.16,-1.788 0,-0.542 -0.352,-0.951 -0.589,-1.112 -0.447,-0.295 -1.056,-0.342 -1.588,-0.342 -0.257,0 -1.017,0.018 -1.302,0.018 -0.172,0 -0.704,-0.018 -1.142,-0.018 -0.123,0 -0.189,0.018 -0.189,0.076 0,0.057 0.056,0.085 0.142,0.085 0.124,0 0.267,0.009 0.333,0.029 0.266,0.076 0.342,0.161 0.362,0.437 0.009,0.257 0.009,0.485 0.009,1.711 l 0,1.427 z m -4.725,2.015 c -1.578,0 -2.529,-1.312 -2.529,-2.976 0,-1.996 1.093,-2.491 2.025,-2.491 1.35,0 2.424,1.103 2.424,2.89 0,2.301 -1.331,2.577 -1.92,2.577 l 0,0 z m -0.342,0.438 c 2.158,0 3.508,-1.455 3.508,-3.309 0,-1.855 -1.312,-3.023 -3.423,-3.023 -2.538,0 -3.508,1.787 -3.508,3.165 0,1.436 0.989,3.167 3.423,3.167 l 0,0 z m -10.591,-0.295 c 0.076,0.21 0.123,0.295 0.228,0.295 0.124,0 0.171,-0.095 0.324,-0.429 0.341,-0.741 1.464,-3.603 1.606,-3.945 l 0.019,0 1.702,3.984 c 0.123,0.295 0.18,0.39 0.294,0.39 0.124,0 0.172,-0.095 0.267,-0.381 0.409,-1.208 1.264,-3.774 1.654,-4.792 0.171,-0.466 0.267,-0.77 0.466,-0.846 0.095,-0.029 0.209,-0.038 0.295,-0.038 0.075,0 0.113,-0.038 0.113,-0.095 0,-0.048 -0.057,-0.066 -0.152,-0.066 -0.275,0 -0.636,0.018 -0.694,0.018 -0.076,0 -0.456,-0.018 -0.893,-0.018 -0.134,0 -0.2,0.018 -0.2,0.076 0,0.047 0.066,0.085 0.142,0.085 0.334,0 0.409,0.095 0.409,0.229 0,0.113 -0.028,0.275 -0.085,0.465 -0.294,0.941 -0.931,3.071 -1.093,3.537 l -0.029,0 -1.673,-3.993 c -0.104,-0.257 -0.181,-0.381 -0.276,-0.381 -0.076,0 -0.161,0.067 -0.247,0.295 l -1.598,4.132 -0.027,0 c -0.124,-0.371 -0.884,-2.818 -1.027,-3.35 -0.105,-0.372 -0.181,-0.639 -0.181,-0.744 0,-0.085 0.01,-0.133 0.086,-0.161 0.066,-0.02 0.142,-0.029 0.209,-0.029 0.085,0 0.152,-0.028 0.152,-0.085 0,-0.058 -0.057,-0.076 -0.181,-0.076 -0.485,0 -0.893,0.018 -0.969,0.018 -0.076,0 -0.543,-0.018 -0.97,-0.018 -0.125,0 -0.192,0.018 -0.192,0.076 0,0.057 0.047,0.085 0.133,0.085 0.078,0 0.24,0.009 0.325,0.067 0.124,0.076 0.19,0.266 0.295,0.561 l 1.768,5.134 z m -6.474,-2.158 c 0,0.741 0,1.378 -0.039,1.72 -0.028,0.238 -0.075,0.389 -0.247,0.428 -0.075,0.019 -0.17,0.029 -0.294,0.029 -0.105,0 -0.133,0.047 -0.133,0.085 0,0.057 0.057,0.087 0.161,0.087 0.172,0 0.381,-0.009 0.58,-0.019 0.2,0 0.38,-0.011 0.475,-0.011 0.248,0 0.561,0.011 0.97,0.021 0.409,0.018 0.913,0.028 1.541,0.028 0.313,0 0.389,0 0.446,-0.21 0.048,-0.163 0.114,-0.714 0.114,-0.894 0,-0.086 -0.009,-0.19 -0.076,-0.19 -0.056,0 -0.076,0.037 -0.095,0.123 -0.056,0.333 -0.152,0.504 -0.361,0.599 -0.219,0.095 -0.57,0.105 -0.79,0.105 -0.854,0 -1.111,-0.123 -1.13,-0.676 -0.01,-0.237 0,-0.922 0,-1.197 l 0,-0.646 c 0,-0.048 0.009,-0.086 0.047,-0.086 0.209,0 1.16,0.019 1.312,0.038 0.314,0.029 0.418,0.152 0.466,0.314 0.019,0.104 0.019,0.208 0.028,0.294 0,0.038 0.019,0.067 0.076,0.067 0.076,0 0.086,-0.114 0.086,-0.181 0,-0.057 0.019,-0.381 0.038,-0.542 0.048,-0.408 0.067,-0.542 0.067,-0.589 0,-0.048 -0.029,-0.086 -0.067,-0.086 -0.038,0 -0.067,0.048 -0.133,0.105 -0.076,0.085 -0.199,0.104 -0.399,0.123 -0.191,0.02 -1.274,0.02 -1.464,0.02 -0.048,0 -0.057,-0.039 -0.057,-0.086 l 0,-1.996 c 0,-0.048 0.019,-0.077 0.057,-0.077 0.171,0 1.169,0.019 1.312,0.038 0.417,0.039 0.484,0.153 0.551,0.295 0.048,0.095 0.057,0.238 0.057,0.295 0,0.067 0.009,0.104 0.067,0.104 0.066,0 0.085,-0.094 0.095,-0.132 0.019,-0.096 0.037,-0.447 0.047,-0.533 0.019,-0.371 0.066,-0.466 0.066,-0.523 0,-0.038 -0.009,-0.076 -0.057,-0.076 -0.037,0 -0.085,0.029 -0.133,0.038 -0.066,0.009 -0.199,0.038 -0.351,0.047 -0.162,0.01 -2.016,0 -2.281,0 -0.239,0 -0.771,-0.018 -1.208,-0.018 -0.124,0 -0.191,0.018 -0.191,0.076 0,0.057 0.058,0.085 0.144,0.085 0.123,0 0.265,0.009 0.332,0.029 0.267,0.076 0.342,0.161 0.362,0.437 0.009,0.257 0.009,0.485 0.009,1.711 l 0,1.427 z m -4.126,-1.427 c 0,-1.226 0,-1.454 0.019,-1.711 0.018,-0.285 0.085,-0.399 0.314,-0.437 0.095,-0.02 0.228,-0.029 0.323,-0.029 0.104,0 0.152,-0.028 0.152,-0.085 0,-0.058 -0.057,-0.076 -0.181,-0.076 -0.323,0 -1.007,0.018 -1.207,0.018 -0.228,0 -0.761,-0.018 -1.15,-0.018 -0.124,0 -0.181,0.018 -0.181,0.076 0,0.057 0.047,0.085 0.143,0.085 0.104,0 0.208,0.009 0.275,0.029 0.266,0.076 0.342,0.161 0.361,0.437 0.01,0.257 0.01,0.485 0.01,1.711 l 0,1.427 c 0,0.741 0,1.378 -0.039,1.72 -0.027,0.238 -0.075,0.389 -0.247,0.428 -0.076,0.019 -0.17,0.029 -0.294,0.029 -0.105,0 -0.133,0.047 -0.133,0.085 0,0.057 0.057,0.087 0.162,0.087 0.17,0 0.38,-0.009 0.579,-0.019 0.2,0 0.38,-0.011 0.476,-0.011 0.342,0 0.694,0.011 1.112,0.021 0.419,0.018 0.903,0.028 1.502,0.028 0.437,0 0.476,-0.038 0.533,-0.22 0.066,-0.238 0.123,-0.837 0.123,-0.932 0,-0.095 -0.019,-0.181 -0.076,-0.181 -0.066,0 -0.086,0.048 -0.095,0.124 -0.019,0.152 -0.104,0.38 -0.209,0.485 -0.209,0.219 -0.533,0.229 -0.979,0.229 -0.647,0 -0.97,-0.048 -1.112,-0.172 -0.181,-0.152 -0.181,-0.666 -0.181,-1.701 l 0,-1.427 z m -6.027,1.427 c 0,0.741 0,1.378 -0.039,1.72 -0.028,0.238 -0.076,0.389 -0.247,0.428 -0.066,0.019 -0.171,0.029 -0.294,0.029 -0.105,0 -0.134,0.047 -0.134,0.085 0,0.057 0.057,0.087 0.162,0.087 0.333,0 0.903,-0.028 1.093,-0.028 0.238,0 0.799,0.028 1.35,0.028 0.095,0 0.162,-0.03 0.162,-0.087 0,-0.038 -0.038,-0.085 -0.134,-0.085 -0.123,0 -0.313,-0.01 -0.427,-0.029 -0.247,-0.039 -0.294,-0.19 -0.324,-0.419 -0.037,-0.351 -0.047,-0.988 -0.047,-1.729 l 0,-3.271 1.055,0.019 c 0.751,0.01 0.971,0.257 0.989,0.466 l 0.01,0.086 c 0.009,0.123 0.028,0.161 0.095,0.161 0.047,0 0.067,-0.048 0.076,-0.133 0,-0.209 0.019,-0.809 0.019,-0.979 0,-0.124 -0.009,-0.171 -0.067,-0.171 -0.028,0 -0.095,0.019 -0.228,0.037 -0.123,0.02 -0.304,0.038 -0.57,0.038 l -3.394,0 c -0.276,0 -0.589,-0.009 -0.837,-0.038 -0.209,-0.028 -0.295,-0.094 -0.361,-0.094 -0.048,0 -0.076,0.047 -0.095,0.152 -0.019,0.066 -0.181,0.846 -0.181,0.979 0,0.086 0.02,0.133 0.076,0.133 0.057,0 0.076,-0.038 0.095,-0.105 0.019,-0.056 0.057,-0.161 0.143,-0.275 0.124,-0.181 0.323,-0.238 0.808,-0.247 l 1.246,-0.029 0,3.271 z m -6.018,0 c 0,0.741 0,1.378 -0.038,1.72 -0.029,0.238 -0.076,0.389 -0.247,0.428 -0.067,0.019 -0.172,0.029 -0.295,0.029 -0.105,0 -0.133,0.047 -0.133,0.085 0,0.057 0.056,0.087 0.161,0.087 0.333,0 0.903,-0.028 1.093,-0.028 0.238,0 0.799,0.028 1.351,0.028 0.094,0 0.161,-0.03 0.161,-0.087 0,-0.038 -0.038,-0.085 -0.133,-0.085 -0.124,0 -0.314,-0.01 -0.428,-0.029 -0.247,-0.039 -0.294,-0.19 -0.323,-0.419 -0.038,-0.351 -0.047,-0.988 -0.047,-1.729 l 0,-3.271 1.054,0.019 c 0.752,0.01 0.971,0.257 0.989,0.466 l 0.01,0.086 c 0.009,0.123 0.028,0.161 0.095,0.161 0.048,0 0.067,-0.048 0.076,-0.133 0,-0.209 0.019,-0.809 0.019,-0.979 0,-0.124 -0.009,-0.171 -0.066,-0.171 -0.029,0 -0.096,0.019 -0.228,0.037 -0.125,0.02 -0.305,0.038 -0.571,0.038 l -3.394,0 c -0.276,0 -0.589,-0.009 -0.837,-0.038 -0.209,-0.028 -0.295,-0.094 -0.361,-0.094 -0.047,0 -0.076,0.047 -0.095,0.152 -0.019,0.066 -0.18,0.846 -0.18,0.979 0,0.086 0.018,0.133 0.075,0.133 0.058,0 0.076,-0.038 0.095,-0.105 0.02,-0.056 0.058,-0.161 0.143,-0.275 0.124,-0.181 0.323,-0.238 0.808,-0.247 l 1.246,-0.029 0,3.271 z m -8.699,-0.238 c 0,1.169 0.333,1.768 0.76,2.139 0.609,0.534 1.474,0.552 1.911,0.552 0.542,0 1.179,-0.085 1.768,-0.58 0.704,-0.581 0.799,-1.531 0.799,-2.435 l 0,-0.865 c 0,-1.226 0.01,-1.454 0.019,-1.711 0.019,-0.285 0.076,-0.399 0.304,-0.437 0.105,-0.02 0.153,-0.029 0.247,-0.029 0.096,0 0.143,-0.028 0.143,-0.085 0,-0.058 -0.057,-0.076 -0.171,-0.076 -0.323,0 -0.884,0.018 -0.98,0.018 -0.009,0 -0.569,-0.018 -0.997,-0.018 -0.115,0 -0.172,0.018 -0.172,0.076 0,0.057 0.048,0.085 0.143,0.085 0.095,0 0.238,0.009 0.304,0.029 0.266,0.076 0.333,0.161 0.352,0.437 0.009,0.257 0.019,0.485 0.019,1.711 l 0,1.018 c 0,0.826 -0.019,1.53 -0.485,1.967 -0.333,0.324 -0.76,0.428 -1.122,0.428 -0.285,0 -0.684,-0.028 -1.055,-0.323 -0.408,-0.323 -0.637,-0.779 -0.637,-1.958 l 0,-1.132 c 0,-1.226 0,-1.454 0.019,-1.711 0.019,-0.285 0.086,-0.399 0.304,-0.437 0.105,-0.02 0.153,-0.029 0.248,-0.029 0.085,0 0.133,-0.028 0.133,-0.085 0,-0.058 -0.057,-0.076 -0.181,-0.076 -0.304,0 -0.866,0.018 -1.074,0.018 -0.247,0 -0.809,-0.018 -1.255,-0.018 -0.123,0 -0.181,0.018 -0.181,0.076 0,0.057 0.048,0.085 0.143,0.085 0.114,0 0.256,0.009 0.323,0.029 0.266,0.076 0.343,0.152 0.361,0.437 0.019,0.257 0.01,0.485 0.01,1.711 l 0,1.189 z m -6.703,-0.894 c -0.028,0 -0.057,-0.009 -0.057,-0.057 l 0,-0.172 c 0,-1.226 0,-1.52 0.019,-1.777 0.019,-0.285 0.086,-0.399 0.314,-0.437 0.095,-0.02 0.171,-0.029 0.238,-0.029 0.105,0 0.152,-0.028 0.152,-0.085 0,-0.058 -0.057,-0.076 -0.171,-0.076 -0.333,0 -0.913,0.018 -1.112,0.018 -0.229,0 -0.78,-0.018 -1.227,-0.018 -0.114,0 -0.18,0.018 -0.18,0.076 0,0.057 0.057,0.085 0.142,0.085 0.124,0 0.267,0.009 0.333,0.029 0.266,0.076 0.342,0.161 0.361,0.437 0.01,0.257 0.01,0.485 0.01,1.711 l 0,1.427 c 0,0.741 0,1.378 -0.039,1.72 -0.028,0.238 -0.076,0.389 -0.247,0.428 -0.076,0.019 -0.17,0.029 -0.294,0.029 -0.105,0 -0.133,0.047 -0.133,0.085 0,0.057 0.057,0.087 0.161,0.087 0.333,0 0.884,-0.028 1.074,-0.028 0.238,0 0.818,0.028 1.36,0.028 0.105,0 0.171,-0.03 0.171,-0.087 0,-0.038 -0.038,-0.085 -0.133,-0.085 -0.123,0 -0.314,-0.01 -0.427,-0.029 -0.248,-0.039 -0.295,-0.19 -0.324,-0.419 -0.038,-0.351 -0.048,-0.969 -0.048,-1.711 l 0,-0.618 c 0,-0.037 0.029,-0.047 0.057,-0.047 l 3.157,0 c 0.019,0 0.047,0.019 0.047,0.047 l 0,0.618 c 0,0.742 0,1.36 -0.038,1.702 -0.029,0.238 -0.076,0.389 -0.247,0.428 -0.076,0.019 -0.171,0.029 -0.304,0.029 -0.095,0 -0.133,0.047 -0.133,0.085 0,0.057 0.066,0.087 0.18,0.087 0.324,0 0.913,-0.028 1.103,-0.028 0.228,0 0.779,0.028 1.322,0.028 0.104,0 0.171,-0.03 0.171,-0.087 0,-0.038 -0.048,-0.085 -0.133,-0.085 -0.133,0 -0.314,-0.01 -0.428,-0.029 -0.256,-0.039 -0.304,-0.19 -0.333,-0.419 -0.038,-0.351 -0.038,-0.988 -0.038,-1.729 l 0,-1.427 c 0,-1.226 0,-1.454 0.019,-1.711 0.019,-0.285 0.086,-0.399 0.304,-0.437 0.105,-0.02 0.181,-0.029 0.248,-0.029 0.095,0 0.152,-0.028 0.152,-0.085 0,-0.058 -0.057,-0.076 -0.181,-0.076 -0.324,0 -0.875,0.018 -1.075,0.018 -0.218,0 -0.807,-0.018 -1.254,-0.018 -0.124,0 -0.181,0.018 -0.181,0.076 0,0.057 0.048,0.085 0.143,0.085 0.114,0 0.257,0.009 0.323,0.029 0.266,0.076 0.342,0.161 0.361,0.437 0.01,0.257 0.019,0.551 0.019,1.777 l 0,0.172 c 0,0.048 -0.028,0.057 -0.047,0.057 l -3.157,0 z m -5.219,3.585 c 0.447,0 0.998,-0.047 1.398,-0.334 0.608,-0.427 0.836,-0.912 0.836,-1.511 0,-0.733 -0.342,-1.35 -1.445,-1.959 l -0.342,-0.19 c -0.751,-0.418 -0.884,-0.703 -0.884,-1.064 0,-0.552 0.542,-0.865 1.141,-0.865 0.542,0 0.808,0.228 0.931,0.379 0.181,0.21 0.219,0.456 0.219,0.533 0,0.095 0.028,0.143 0.086,0.143 0.066,0 0.104,-0.086 0.104,-0.257 0,-0.637 0.029,-0.865 0.029,-0.97 0,-0.057 -0.038,-0.085 -0.114,-0.105 -0.219,-0.056 -0.647,-0.132 -1.189,-0.132 -1.159,0 -2.11,0.637 -2.11,1.626 0,0.712 0.323,1.254 1.312,1.834 l 0.485,0.285 c 0.741,0.437 0.827,0.789 0.827,1.141 0,0.57 -0.438,1.026 -1.16,1.026 -0.523,0 -1.151,-0.199 -1.331,-0.797 -0.048,-0.143 -0.076,-0.315 -0.076,-0.419 0,-0.057 -0.01,-0.134 -0.086,-0.134 -0.066,0 -0.105,0.086 -0.105,0.21 -0.009,0.133 -0.047,0.637 -0.047,1.075 0,0.18 0.028,0.218 0.162,0.275 0.361,0.163 0.875,0.21 1.359,0.21 l 0,0 z"
         
         
         style="fill:#405062;fill-rule:evenodd;stroke:none;stroke-width:1" />
      <path
         d="m 126.90102,373.15841 c -4.166,1.993 -6.752,5.77 -6.609,9.212 0.115,2.759 2.258,6.181 5.799,8.287 -4.331,0.132 -6.907,-5.146 -6.801,-7.703 -0.618,2.975 0.461,8.588 6.171,10.616 1.881,0.668 5.397,0.772 6.967,-0.36 2.715,-1.954 1.623,-4.647 -0.613,-6.482 -2.587,-2.123 -4.858,-3.529 -6.162,-6.412 -0.886,-1.958 -1.205,-4.398 1.248,-7.158"
         
         
         style="fill:#405062;fill-rule:evenodd;stroke:none;stroke-width:1" />
      <path
         d="m 129.12222,382.36041 c -3.666,-3.758 -2.9,-6.299 -0.556,-9.555 1.092,-1.516 2.17,-3.031 1.988,-5.007 5.581,5.957 0.361,7.903 3.102,10.952 0.388,-1.682 1.571,-3.44 3.224,-4.705 -0.458,4.733 1.103,4.882 2.475,7.797 2.118,4.497 -0.812,9.488 -5.184,11.565 1.856,-1.823 2.049,-4.326 -0.137,-6.791 -1.112,-1.254 -3.129,-2.429 -4.912,-4.256"
         
         
         style="fill:#405062;fill-rule:evenodd;stroke:none;stroke-width:1" />
      <path
         d="m 129.12222,382.36041 c -3.666,-3.758 -2.9,-6.299 -0.556,-9.555 1.092,-1.516 2.17,-3.031 1.988,-5.007 5.581,5.957 0.361,7.903 3.102,10.952 0.388,-1.682 1.571,-3.44 3.224,-4.705 -0.458,4.733 1.103,4.882 2.475,7.797 2.118,4.497 -0.812,9.488 -5.184,11.565 1.856,-1.823 2.049,-4.326 -0.137,-6.791 -1.112,-1.254 -3.129,-2.429 -4.912,-4.256"
         
         
         style="fill:#405062;fill-rule:evenodd;stroke:none;stroke-width:1" />
    </g>
  </g>
</svg>
