{
  "index": {
    "heading": "Overview",
    "next":  "using components",
    "nexturi": "using"
  },
  "using": {
    "heading": "Using components",
    "next":  "component library",
    "nexturi": "library"
  },
  "library": {
    "heading": "Component library",
    "next": "developing components",
    "nexturi": "developing"
  },
  "developing": {
    "heading": "Developing components"
  }
}
